{
  "options": [
    {
      "enabled": false,
      "definition": {
        "id": "5d58cc01-7c75-450c-be18-a388ddb129ec"
      },
      "inputs": {
        "branchFilters": "[\"+refs/heads/*\"]",
        "additionalFields": "{}"
      }
    },
    {
      "enabled": false,
      "definition": {
        "id": "a9db38f9-9fdc-478c-b0f9-464221e58316"
      },
      "inputs": {
        "workItemType": "1415671",
        "assignToRequestor": "true",
        "additionalFields": "{}"
      }
    }
  ],
  "triggers": [
    {
      "branchFilters": [
        "+master"
      ],
      "pathFilters": [],
      "batchChanges": false,
      "maxConcurrentBuildsPerBranch": 1,
      "pollingInterval": 0,
      "triggerType": 2
    }
  ],
  "variables": {
    "system.debug": {
      "value": "false",
      "allowOverride": true
    },
    "projectName": {
      "value": "npm-todo-project-key"
    },
    "projectKey": {
      "value": "npm-todo-project-key"
    }
  },
  "retentionRules": [
    {
      "branches": [
        "+refs/heads/*"
      ],
      "artifacts": [],
      "artifactTypesToDelete": [
        "FilePath",
        "SymbolStore"
      ],
      "daysToKeep": 10,
      "minimumToKeep": 1,
      "deleteBuildRecord": true,
      "deleteTestResults": true
    }
  ],
  "properties": {},
  "tags": [],
  "metrics": [
    {
      "name": "CurrentBuildsInQueue",
      "scope": "refs/heads/master",
      "intValue": 0
    },
    {
      "name": "CurrentBuildsInProgress",
      "scope": "refs/heads/master",
      "intValue": 0
    },
    {
      "name": "CanceledBuilds",
      "scope": "refs/heads/master",
      "intValue": 10,
      "date": "2018-03-07T00:00:00.000Z"
    },
    {
      "name": "FailedBuilds",
      "scope": "refs/heads/master",
      "intValue": 6,
      "date": "2018-03-07T00:00:00.000Z"
    },
    {
      "name": "PartiallySuccessfulBuilds",
      "scope": "refs/heads/master",
      "intValue": 0,
      "date": "2018-03-07T00:00:00.000Z"
    },
    {
      "name": "SuccessfulBuilds",
      "scope": "refs/heads/master",
      "intValue": 20,
      "date": "2018-03-07T00:00:00.000Z"
    },
    {
      "name": "TotalBuilds",
      "scope": "refs/heads/master",
      "intValue": 36,
      "date": "2018-03-07T00:00:00.000Z"
    },
    {
      "name": "CanceledBuilds",
      "scope": "refs/heads/master",
      "intValue": 0,
      "date": "2018-03-06T00:00:00.000Z"
    },
    {
      "name": "FailedBuilds",
      "scope": "refs/heads/master",
      "intValue": 1,
      "date": "2018-03-06T00:00:00.000Z"
    },
    {
      "name": "PartiallySuccessfulBuilds",
      "scope": "refs/heads/master",
      "intValue": 0,
      "date": "2018-03-06T00:00:00.000Z"
    },
    {
      "name": "SuccessfulBuilds",
      "scope": "refs/heads/master",
      "intValue": 18,
      "date": "2018-03-06T00:00:00.000Z"
    },
    {
      "name": "TotalBuilds",
      "scope": "refs/heads/master",
      "intValue": 19,
      "date": "2018-03-06T00:00:00.000Z"
    },
    {
      "name": "CanceledBuilds",
      "scope": "refs/heads/master",
      "intValue": 0,
      "date": "2018-03-05T00:00:00.000Z"
    },
    {
      "name": "FailedBuilds",
      "scope": "refs/heads/master",
      "intValue": 7,
      "date": "2018-03-05T00:00:00.000Z"
    },
    {
      "name": "PartiallySuccessfulBuilds",
      "scope": "refs/heads/master",
      "intValue": 0,
      "date": "2018-03-05T00:00:00.000Z"
    },
    {
      "name": "SuccessfulBuilds",
      "scope": "refs/heads/master",
      "intValue": 6,
      "date": "2018-03-05T00:00:00.000Z"
    },
    {
      "name": "TotalBuilds",
      "scope": "refs/heads/master",
      "intValue": 13,
      "date": "2018-03-05T00:00:00.000Z"
    },
    {
      "name": "CanceledBuilds",
      "scope": "refs/heads/master",
      "intValue": 0,
      "date": "2018-03-03T00:00:00.000Z"
    },
    {
      "name": "CurrentBuildsInQueue",
      "scope": "refs/heads/master",
      "intValue": 0
    },
    {
      "name": "CurrentBuildsInProgress",
      "scope": "refs/heads/master",
      "intValue": 0
    },
    {
      "name": "CurrentBuildsInQueue",
      "scope": "master",
      "intValue": 0
    },
    {
      "name": "CurrentBuildsInProgress",
      "scope": "master",
      "intValue": 0
    },
    {
      "name": "CanceledBuilds",
      "scope": "master",
      "intValue": 1,
      "date": "2018-02-21T00:00:00.000Z"
    },
    {
      "name": "FailedBuilds",
      "scope": "master",
      "intValue": 1,
      "date": "2018-02-21T00:00:00.000Z"
    },
    {
      "name": "PartiallySuccessfulBuilds",
      "scope": "master",
      "intValue": 0,
      "date": "2018-02-21T00:00:00.000Z"
    },
    {
      "name": "SuccessfulBuilds",
      "scope": "master",
      "intValue": 7,
      "date": "2018-02-21T00:00:00.000Z"
    },
    {
      "name": "TotalBuilds",
      "scope": "master",
      "intValue": 9,
      "date": "2018-02-21T00:00:00.000Z"
    }
  ],
  "_links": {
    "self": {
      "href": "https://gc-al-1.visualstudio.com/cb5bdde1-df2d-41f7-9174-30fd20c94648/_apis/build/Definitions/95?revision=78"
    },
    "web": {
      "href": "https://gc-al-1.visualstudio.com/_permalink/_build/index?collectionId=44edeccc-6d12-437a-9c1b-c25a91257528&projectId=cb5bdde1-df2d-41f7-9174-30fd20c94648&definitionId=95"
    },
    "editor": {
      "href": "https://gc-al-1.visualstudio.com/_permalink/_build/definitionEditor?collectionId=44edeccc-6d12-437a-9c1b-c25a91257528&projectId=cb5bdde1-df2d-41f7-9174-30fd20c94648&definitionId=95"
    }
  },
  "jobAuthorizationScope": 1,
  "jobTimeoutInMinutes": 60,
  "jobCancelTimeoutInMinutes": 5,
  "process": {
    "phases": [
      {
        "steps": [
          {
            "environment": {},
            "enabled": false,
            "continueOnError": false,
            "alwaysRun": false,
            "displayName": "Run dir",
            "timeoutInMinutes": 0,
            "condition": "succeeded()",
            "refName": "",
            "task": {
              "id": "d9bafed4-0b18-4f58-968d-86655b4d2ce9",
              "versionSpec": "1.*",
              "definitionType": "task"
            },
            "inputs": {
              "filename": "dir",
              "arguments": "",
              "workingFolder": "",
              "failOnStandardError": "false"
            }
          },
          {
            "environment": {},
            "enabled": true,
            "continueOnError": false,
            "alwaysRun": false,
            "displayName": "Archive $(Build.SourcesDirectory)",
            "timeoutInMinutes": 0,
            "condition": "succeeded()",
            "refName": "",
            "task": {
              "id": "d8b84976-e99a-4b86-b885-4849694435b0",
              "versionSpec": "2.*",
              "definitionType": "task"
            },
            "inputs": {
              "rootFolderOrFile": "$(Build.SourcesDirectory)",
              "includeRootFolder": "false",
              "archiveType": "zip",
              "tarCompression": "gz",
              "archiveFile": "package.zip",
              "replaceExistingArchive": "true"
            }
          },
          {
            "environment": {},
            "enabled": false,
            "continueOnError": false,
            "alwaysRun": false,
            "displayName": "Run dir",
            "timeoutInMinutes": 0,
            "condition": "succeeded()",
            "refName": "",
            "task": {
              "id": "d9bafed4-0b18-4f58-968d-86655b4d2ce9",
              "versionSpec": "1.*",
              "definitionType": "task"
            },
            "inputs": {
              "filename": "dir",
              "arguments": "",
              "workingFolder": "",
              "failOnStandardError": "false"
            }
          },
          {
            "environment": {},
            "enabled": true,
            "continueOnError": false,
            "alwaysRun": false,
            "displayName": "Publish Artifact: package.zip",
            "timeoutInMinutes": 0,
            "condition": "succeeded()",
            "refName": "",
            "task": {
              "id": "2ff763a7-ce83-4e1f-bc89-0ae63477cebe",
              "versionSpec": "1.*",
              "definitionType": "task"
            },
            "inputs": {
              "PathtoPublish": "$(Build.SourcesDirectory)/package.zip",
              "ArtifactName": "package.zip",
              "ArtifactType": "Container",
              "TargetPath": "\\\\my\\share\\$(Build.DefinitionName)\\$(Build.BuildNumber)",
              "Parallel": "false",
              "ParallelCount": "8"
            }
          },
          {
            "environment": {},
            "enabled": true,
            "continueOnError": false,
            "alwaysRun": false,
            "displayName": "Publish Artifact: install.sh",
            "timeoutInMinutes": 0,
            "condition": "succeeded()",
            "refName": "",
            "task": {
              "id": "2ff763a7-ce83-4e1f-bc89-0ae63477cebe",
              "versionSpec": "1.*",
              "definitionType": "task"
            },
            "inputs": {
              "PathtoPublish": "$(Build.SourcesDirectory)/install.sh",
              "ArtifactName": "install.sh",
              "ArtifactType": "Container",
              "TargetPath": "\\\\my\\share\\$(Build.DefinitionName)\\$(Build.BuildNumber)",
              "Parallel": "false",
              "ParallelCount": "8"
            }
          },
          {
            "environment": {},
            "enabled": true,
            "continueOnError": false,
            "alwaysRun": false,
            "displayName": "Publish Artifact: schema.sql",
            "timeoutInMinutes": 0,
            "condition": "succeeded()",
            "task": {
              "id": "2ff763a7-ce83-4e1f-bc89-0ae63477cebe",
              "versionSpec": "1.*",
              "definitionType": "task"
            },
            "inputs": {
              "PathtoPublish": "config/schema.sql",
              "ArtifactName": "schema",
              "ArtifactType": "Container",
              "TargetPath": "\\\\my\\share\\$(Build.DefinitionName)\\$(Build.BuildNumber)",
              "Parallel": "false",
              "ParallelCount": "8"
            }
          }
        ],
        "name": "Phase 1",
        "condition": "succeeded()",
        "target": {
          "executionOptions": {
            "type": 0
          },
          "allowScriptsAuthAccessOption": false,
          "type": 1
        },
        "jobAuthorizationScope": "projectCollection",
        "jobCancelTimeoutInMinutes": 1
      }
    ],
    "type": 1
  },
  "repository": {
    "properties": {
      "checkoutNestedSubmodules": "false",
      "cleanOptions": "0",
      "fetchDepth": "0",
      "gitLfsSupport": "false",
      "reportBuildStatus": "true",
      "skipSyncSource": "false",
      "labelSourcesFormat": "$(build.buildNumber)",
      "labelSources": "0"
    },
    "id": "0f4652da-661c-4e49-8fa8-721eba295953",
    "type": "TfsGit",
    "url": "https://gc-al-1.visualstudio.com/_git/GeorgeTestProject3",
    "defaultBranch": "refs/heads/master",
    "clean": "false",
    "checkoutSubmodules": false,
    "name": "GeorgeTestProject3"
  },
  "processParameters": {},
  "quality": 1,
  "authoredBy": {
    "displayName": "George Cairns",
    "url": "https://app.vssps.visualstudio.com/Aa3ec5570-8376-440c-8edd-7131daadf5fa/_apis/Identities/c97200ce-c5ff-6b30-a5b6-d7ff263a60b6",
    "id": "c97200ce-c5ff-6b30-a5b6-d7ff263a60b6",
    "uniqueName": "george@automationlogic.com",
    "imageUrl": "https://gc-al-1.visualstudio.com/_api/_common/identityImage?id=c97200ce-c5ff-6b30-a5b6-d7ff263a60b6",
    "descriptor": "msa.Yzk3MjAwY2UtYzVmZi03YjMwLWE1YjYtZDdmZjI2M2E2MGI2"
  },
  "drafts": [],
  "queue": {
    "_links": {
      "self": {
        "href": "https://gc-al-1.visualstudio.com/_apis/build/Queues/24"
      }
    },
    "id": 24,
    "name": "Hosted VS2017",
    "url": "https://gc-al-1.visualstudio.com/_apis/build/Queues/24",
    "pool": {
      "id": 4,
      "name": "Hosted VS2017",
      "isHosted": true
    }
  },
  "id": 95,
  "name": "nodejs-vmscaleset",
  "url": "https://gc-al-1.visualstudio.com/cb5bdde1-df2d-41f7-9174-30fd20c94648/_apis/build/Definitions/95?revision=78",
  "uri": "vstfs:///Build/Definition/95",
  "path": "\\",
  "type": 2,
  "queueStatus": 0,
  "revision": 78,
  "createdDate": "2018-03-07T17:57:47.833Z",
  "project": {
    "id": "cb5bdde1-df2d-41f7-9174-30fd20c94648",
    "name": "GeorgeTestProject3",
    "url": "https://gc-al-1.visualstudio.com/_apis/projects/cb5bdde1-df2d-41f7-9174-30fd20c94648",
    "state": "wellFormed",
    "revision": 44,
    "visibility": 0
  }
}