{
  "source": 2,
  "id": 1,
  "revision": 2,
  "name": "nodejs-vmscaleset_nvmss1524579633",
  "description": null,
  "createdBy": {
    "displayName": "Danish Muhammad",
    "url": "https://app.vssps.visualstudio.com/A83ddc703-424d-4fe7-83ee-7b1ced79b6ae/_apis/Identities/364c6353-7bf5-68d0-81a3-58c77e99bf62",
    "_links": {
      "avatar": {
        "href": ""
      }
    },
    "id": "364c6353-7bf5-68d0-81a3-58c77e99bf62",
    "uniqueName": "danish@automationlogic.onmicrosoft.com",
    "imageUrl": "https://dondanish.visualstudio.com/_api/_common/identityImage?id=364c6353-7bf5-68d0-81a3-58c77e99bf62",
    "descriptor": "aad.MzY0YzYzNTMtN2JmNS03OGQwLTgxYTMtNThjNzdlOTliZjYy"
  },
  "createdOn": "2018-04-24T14:20:42.003Z",
  "modifiedBy": {
    "displayName": "Danish Muhammad",
    "url": "https://app.vssps.visualstudio.com/A83ddc703-424d-4fe7-83ee-7b1ced79b6ae/_apis/Identities/364c6353-7bf5-68d0-81a3-58c77e99bf62",
    "_links": {
      "avatar": {
        "href": ""
      }
    },
    "id": "364c6353-7bf5-68d0-81a3-58c77e99bf62",
    "uniqueName": "danish@automationlogic.onmicrosoft.com",
    "imageUrl": "https://dondanish.visualstudio.com/_api/_common/identityImage?id=364c6353-7bf5-68d0-81a3-58c77e99bf62",
    "descriptor": "aad.MzY0YzYzNTMtN2JmNS03OGQwLTgxYTMtNThjNzdlOTliZjYy"
  },
  "modifiedOn": "2018-04-24T14:22:05.003Z",
  "isDeleted": false,
  "path": "\\",
  "variables": {
    "adminUsername": {
      "value": "aladminuser"
    },
    "applicationEnvironment": {
      "value": "dev"
    },
    "applicationName": {
      "value": "nvmss1524579633"
    },
    "applicationPort": {
      "value": "3000"
    },
    "databaseAdminUsername": {
      "value": "ALAdminDBUser"
    },
    "databaseName": {
      "value": "nvmss1524579633db"
    },
    "databaseSelection": {
      "value": "MySQL"
    },
    "framework": {
      "value": "nodejs"
    },
    "instanceCount": {
      "value": "1"
    },
    "instanceSize": {
      "value": "Standard_A1"
    },
    "location": {
      "value": "westeurope"
    },
    "networkIpAddress": {
      "value": "\"name\":\"ip01\",\"resourceGroup\":\"nvmss1524579633\",\"domainNameLabel\":\"nvmss1524579633\",\"publicIPAllocationMethod\":\"static\",\"newOrExistingOrNone\":\"new\""
    },
    "osPlatform": {
      "value": "LinuxVm"
    },
    "osVersion": {
      "value": "\"publisher\":\"Canonical\",\"offer\":\"UbuntuServer\",\"sku\":\"16.04.0-LTS\",\"version\":\"latest\""
    },
    "resourceGroup": {
      "value": "nvmss1524579633"
    },
    "vaultName": {
      "value": "nvmss1524579633vault"
    },
    "catalogVersion": {
      "value": "v1.0.0"
    }
  },
  "variableGroups": [],
  "environments": [
    {
      "id": 1,
      "name": "Deploy",
      "rank": 1,
      "owner": {
        "displayName": "Danish Muhammad",
        "url": "https://app.vssps.visualstudio.com/A83ddc703-424d-4fe7-83ee-7b1ced79b6ae/_apis/Identities/364c6353-7bf5-68d0-81a3-58c77e99bf62",
        "_links": {
          "avatar": {
            "href": ""
          }
        },
        "id": "364c6353-7bf5-68d0-81a3-58c77e99bf62",
        "uniqueName": "danish@automationlogic.onmicrosoft.com",
        "imageUrl": "https://dondanish.visualstudio.com/_api/_common/identityImage?id=364c6353-7bf5-68d0-81a3-58c77e99bf62",
        "descriptor": "aad.MzY0YzYzNTMtN2JmNS03OGQwLTgxYTMtNThjNzdlOTliZjYy"
      },
      "variables": {
        "adminPassword": {
          "value": "2dsXk+VUG1nM51WKaL1"
        },
        "databaseAdminPassword": {
          "value": "q51I5918plo2px9RaL1"
        }
      },
      "variableGroups": [],
      "preDeployApprovals": {
        "approvals": [
          {
            "rank": 1,
            "isAutomated": true,
            "isNotificationOn": false,
            "id": 1
          }
        ],
        "approvalOptions": {
          "requiredApproverCount": null,
          "releaseCreatorCanBeApprover": false,
          "autoTriggeredAndPreviousEnvironmentApprovedCanBeSkipped": false,
          "enforceIdentityRevalidation": false,
          "timeoutInMinutes": 0,
          "executionOrder": 1
        }
      },
      "deployStep": {
        "id": 14
      },
      "postDeployApprovals": {
        "approvals": [
          {
            "rank": 1,
            "isAutomated": true,
            "isNotificationOn": false,
            "id": 15
          }
        ],
        "approvalOptions": {
          "requiredApproverCount": null,
          "releaseCreatorCanBeApprover": false,
          "autoTriggeredAndPreviousEnvironmentApprovedCanBeSkipped": false,
          "enforceIdentityRevalidation": false,
          "timeoutInMinutes": 0,
          "executionOrder": 2
        }
      },
      "deployPhases": [
        {
          "deploymentInput": {
            "parallelExecution": {
              "parallelExecutionType": "none"
            },
            "skipArtifactsDownload": false,
            "artifactsDownloadInput": {
              "downloadInputs": []
            },
            "queueId": 106,
            "demands": [],
            "enableAccessToken": false,
            "timeoutInMinutes": 0,
            "jobCancelTimeoutInMinutes": 1,
            "condition": "succeeded()",
            "overrideInputs": {}
          },
          "rank": 1,
          "phaseType": 1,
          "name": "Agent phase",
          "workflowTasks": [
            {
              "taskId": "94a74903-f93f-4075-884f-dc11f34058b4",
              "version": "2.*",
              "name": "Create Storage Account for Logs",
              "refName": "",
              "enabled": true,
              "alwaysRun": false,
              "continueOnError": false,
              "timeoutInMinutes": 0,
              "definitionType": "task",
              "overrideInputs": {},
              "condition": "succeeded()",
              "inputs": {
                "ConnectedServiceName": "4a99f23a-83c4-46f2-94d2-a2b61a0ac2a5",
                "action": "Create Or Update Resource Group",
                "resourceGroupName": "$(resourceGroup)logrg",
                "location": "$(location)",
                "templateLocation": "URL of the file",
                "csmFileLink": "https://bitbucket.org/automationlogic/azure-catalog/raw/$(catalogVersion)/storage.json",
                "csmParametersFileLink": "https://bitbucket.org/automationlogic/azure-catalog/raw/$(catalogVersion)/parameters.storage.json",
                "csmFile": "https://bitbucket.org/automationlogic/azure-catalog/raw/$(catalogVersion)/storage.json",
                "csmParametersFile": "$(System.DefaultWorkingDirectory)/AzureCatalog/vstsIntegration/parametersStorage.json",
                "overrideParameters": "-location \"$(location)\" -storageAccountApplication \"$(applicationName)logsa\" -storageAccountType \"Standard_LRS\"",
                "deploymentMode": "Incremental",
                "enableDeploymentPrerequisites": "None",
                "deploymentGroupEndpoint": "",
                "project": "",
                "deploymentGroupName": "",
                "copyAzureVMTags": "true",
                "outputVariable": "",
                "deploymentOutputs": ""
              }
            },
            {
              "taskId": "46e4be58-730b-4389-8a2f-ea10b3e5e815",
              "version": "1.*",
              "name": "Set log storage account id as a var",
              "refName": "",
              "enabled": true,
              "alwaysRun": false,
              "continueOnError": false,
              "timeoutInMinutes": 0,
              "definitionType": "task",
              "overrideInputs": {},
              "condition": "succeeded()",
              "inputs": {
                "connectedServiceNameARM": "4a99f23a-83c4-46f2-94d2-a2b61a0ac2a5",
                "scriptLocation": "inlineScript",
                "scriptPath": "",
                "inlineScript": "#!/bin/bash\necho \"##vso[task.setvariable variable=storageAccountID]`az storage account list --resource-group $(resourceGroup)logrg | jq .[].id`\"\n",
                "args": "",
                "cwd": "",
                "failOnStandardError": "true"
              }
            },
            {
              "taskId": "46e4be58-730b-4389-8a2f-ea10b3e5e815",
              "version": "1.*",
              "name": "Enable audit logging and point to log storage",
              "refName": "",
              "enabled": true,
              "alwaysRun": false,
              "continueOnError": false,
              "timeoutInMinutes": 0,
              "definitionType": "task",
              "overrideInputs": {},
              "condition": "succeeded()",
              "inputs": {
                "connectedServiceNameARM": "4a99f23a-83c4-46f2-94d2-a2b61a0ac2a5",
                "scriptLocation": "inlineScript",
                "scriptPath": "",
                "inlineScript": "#!/bin/bash\naz monitor log-profiles create --days 365 -n \"log-profile\" --enabled true --locations $(location) --location $(location) --categories Write Delete Action --storage-account-id $(storageAccountID)\n",
                "args": "",
                "cwd": "",
                "failOnStandardError": "true"
              }
            },
            {
              "taskId": "94a74903-f93f-4075-884f-dc11f34058b4",
              "version": "2.*",
              "name": "Create Storage Account",
              "refName": "Task1",
              "enabled": true,
              "alwaysRun": false,
              "continueOnError": false,
              "timeoutInMinutes": 0,
              "definitionType": "task",
              "overrideInputs": {},
              "condition": "succeeded()",
              "inputs": {
                "ConnectedServiceName": "4a99f23a-83c4-46f2-94d2-a2b61a0ac2a5",
                "action": "Create Or Update Resource Group",
                "resourceGroupName": "$(resourceGroup)",
                "location": "$(location)",
                "templateLocation": "URL of the file",
                "csmFileLink": "https://bitbucket.org/automationlogic/azure-catalog/raw/$(catalogVersion)/storage.json",
                "csmParametersFileLink": "https://bitbucket.org/automationlogic/azure-catalog/raw/$(catalogVersion)/parameters.storage.json",
                "csmFile": "https://bitbucket.org/automationlogic/azure-catalog/raw/$(catalogVersion)/storage.json",
                "csmParametersFile": "$(System.DefaultWorkingDirectory)/AzureCatalog/vstsIntegration/parametersStorage.json",
                "overrideParameters": "-location \"$(location)\" -storageAccountApplication \"$(applicationName)stra\" -storageAccountType \"Standard_LRS\"",
                "deploymentMode": "Incremental",
                "enableDeploymentPrerequisites": "None",
                "deploymentGroupEndpoint": "",
                "project": "",
                "deploymentGroupName": "",
                "copyAzureVMTags": "true",
                "outputVariable": "",
                "deploymentOutputs": ""
              }
            },
            {
              "taskId": "46e4be58-730b-4389-8a2f-ea10b3e5e815",
              "version": "1.*",
              "name": "Create Container",
              "refName": "Task2",
              "enabled": true,
              "alwaysRun": false,
              "continueOnError": false,
              "timeoutInMinutes": 0,
              "definitionType": "task",
              "overrideInputs": {},
              "condition": "succeeded()",
              "inputs": {
                "connectedServiceNameARM": "4a99f23a-83c4-46f2-94d2-a2b61a0ac2a5",
                "scriptLocation": "inlineScript",
                "scriptPath": "",
                "inlineScript": "set -x\n\nACCOUNT_KEY=$(az storage account keys list --resource-group $(resourceGroup) --account-name $(applicationName)stra | jq '.[] | .value' | head -1)\n\naz storage container create --account-name $(applicationName)stra --account-key $ACCOUNT_KEY --name $(applicationName)cont\n\naz storage container set-permission --account-name $(applicationName)stra --name $(applicationName)cont --account-key $ACCOUNT_KEY --public-access blob",
                "args": "$(resourceGroup)",
                "cwd": "",
                "failOnStandardError": "false"
              }
            },
            {
              "taskId": "46e4be58-730b-4389-8a2f-ea10b3e5e815",
              "version": "1.*",
              "name": "Upload Application to Storage account",
              "refName": "Task6",
              "enabled": true,
              "alwaysRun": false,
              "continueOnError": true,
              "timeoutInMinutes": 0,
              "definitionType": "task",
              "overrideInputs": {},
              "condition": "succeeded()",
              "inputs": {
                "connectedServiceNameARM": "4a99f23a-83c4-46f2-94d2-a2b61a0ac2a5",
                "scriptLocation": "inlineScript",
                "scriptPath": "",
                "inlineScript": "ACCOUNT_KEY=$(az storage account keys list --resource-group $(resourceGroup) --account-name $(applicationName)stra | jq '.[] | .value' | head -1)\n\naz storage blob upload --container-name \"$(applicationName)cont\" --file ./package.zip/package.zip --name \"package.zip\" --account-name $(applicationName)stra --account-key $ACCOUNT_KEY 2>/dev/null\n\naz storage blob upload --container-name \"$(applicationName)cont\" --file ./install.sh/install.sh --name \"install.sh\" --account-name $(applicationName)stra --account-key $ACCOUNT_KEY 2>/dev/null",
                "args": "",
                "cwd": "$(System.DefaultWorkingDirectory)/$(Build.DefinitionName)",
                "failOnStandardError": "false"
              }
            },
            {
              "taskId": "94a74903-f93f-4075-884f-dc11f34058b4",
              "version": "2.*",
              "name": "Deploy Catalog",
              "refName": "Task3",
              "enabled": true,
              "alwaysRun": false,
              "continueOnError": false,
              "timeoutInMinutes": 0,
              "definitionType": "task",
              "overrideInputs": {},
              "condition": "succeeded()",
              "inputs": {
                "ConnectedServiceName": "4a99f23a-83c4-46f2-94d2-a2b61a0ac2a5",
                "action": "Create Or Update Resource Group",
                "resourceGroupName": "$(resourceGroup)",
                "location": "$(location)",
                "templateLocation": "URL of the file",
                "csmFileLink": "https://bitbucket.org/automationlogic/azure-catalog/raw/$(catalogVersion)/mainTemplate.json",
                "csmParametersFileLink": "https://bitbucket.org/automationlogic/azure-catalog/raw/$(catalogVersion)/parametersTemplate.json",
                "csmFile": "temp",
                "csmParametersFile": "",
                "overrideParameters": "-appUpload [\"https://$(applicationName)stra.blob.core.windows.net/$(applicationName)cont/package.zip\",\"https://$(applicationName)stra.blob.core.windows.net/$(applicationName)cont/install.sh\"] -adminUsername $(adminUsername) -applicationName $(applicationName) -osPlatform $(osPlatform) -instanceCount $(instanceCount) -databaseSelection $(databaseSelection) -osVersion {$(osVersion)} -instanceSize $(instanceSize) -framework $(framework) -adminUsername $(adminUsername) -adminPassword $(adminPassword) -instanceSize $(instanceSize) -networkIpAddress {$(networkIpAddress)} -databaseName $(databaseName) -databaseAdminPassword $(databaseAdminPassword) -databaseAdminUsername $(databaseAdminUsername) -applicationPort $(applicationPort) -applicationEnvironment $(applicationEnvironment) -storageAccountID $(storageAccountID) -storageAccountName \"$(applicationName)logsa\" -vaultName $(vaultName)",
                "deploymentMode": "Incremental",
                "enableDeploymentPrerequisites": "None",
                "deploymentGroupEndpoint": "",
                "project": "",
                "deploymentGroupName": "",
                "copyAzureVMTags": "true",
                "outputVariable": "",
                "deploymentOutputs": ""
              }
            },
            {
              "taskId": "46e4be58-730b-4389-8a2f-ea10b3e5e815",
              "version": "1.*",
              "name": "Deploy database schema",
              "refName": "",
              "enabled": true,
              "alwaysRun": false,
              "continueOnError": false,
              "timeoutInMinutes": 0,
              "definitionType": "task",
              "overrideInputs": {},
              "condition": "succeeded()",
              "inputs": {
                "connectedServiceNameARM": "4a99f23a-83c4-46f2-94d2-a2b61a0ac2a5",
                "scriptLocation": "inlineScript",
                "scriptPath": "",
                "inlineScript": "#!/bin/bash\n\n##############################\n## Get agents public IP \n##############################\nMYIP=`dig +short myip.opendns.com @resolver1.opendns.com`\n\n##############################\n## Allow all Azure Services to access the database \n##############################\naz mysql server firewall-rule create --resource-group $(resourceGroup) --server-name $(databaseName) --name containerIPrule --start-ip-address 0.0.0.0 --end-ip-address 0.0.0.0\n\n##############################\n## create temp firewall rule\n##############################\naz mysql server firewall-rule create --resource-group $(resourceGroup) --server-name $(databaseName) --name agentFirewallRule --start-ip-address $MYIP --end-ip-address $MYIP\n\n##############################\n## insert schema into database\n##############################\nMYSQL_PWD=$(databaseAdminPassword) mysql -h $(databaseName).mysql.database.azure.com -u $(databaseAdminUsername)@$(databaseName) < ./schema/schema.sql\n\n##############################\n## delete temp firewall rule\n##############################\naz mysql server firewall-rule delete --resource-group $(resourceGroup) --server-name $(databaseName) --name agentFirewallRule --yes",
                "args": "",
                "cwd": "$(System.DefaultWorkingDirectory)/$(Build.DefinitionName)",
                "failOnStandardError": "true"
              }
            }
          ]
        }
      ],
      "environmentOptions": {
        "emailNotificationType": "OnlyOnFailure",
        "emailRecipients": "release.environment.owner;release.creator",
        "skipArtifactsDownload": false,
        "timeoutInMinutes": 0,
        "enableAccessToken": false,
        "publishDeploymentStatus": true,
        "badgeEnabled": false,
        "autoLinkWorkItems": false
      },
      "demands": [],
      "conditions": [],
      "executionPolicy": {
        "concurrencyCount": 0,
        "queueDepthCount": 0
      },
      "schedules": [],
      "currentRelease": {
        "id": 0,
        "url": "https://dondanish.vsrm.visualstudio.com/final/_apis/Release/releases/0",
        "_links": {}
      },
      "retentionPolicy": {
        "daysToKeep": 30,
        "releasesToKeep": 3,
        "retainBuild": true
      },
      "processParameters": {},
      "properties": {},
      "preDeploymentGates": {
        "id": 0,
        "gatesOptions": null,
        "gates": []
      },
      "postDeploymentGates": {
        "id": 0,
        "gatesOptions": null,
        "gates": []
      },
      "environmentTriggers": [],
      "badgeUrl": "https://dondanish.vsrm.visualstudio.com/_apis/public/Release/badge/d49a4e85-849b-44a7-aa0f-6cd77179e9f4/1/1"
    },
    {
      "id": 2,
      "name": "Update",
      "rank": 2,
      "owner": {
        "displayName": "Danish Muhammad",
        "url": "https://app.vssps.visualstudio.com/A83ddc703-424d-4fe7-83ee-7b1ced79b6ae/_apis/Identities/364c6353-7bf5-68d0-81a3-58c77e99bf62",
        "_links": {
          "avatar": {
            "href": ""
          }
        },
        "id": "364c6353-7bf5-68d0-81a3-58c77e99bf62",
        "uniqueName": "danish@automationlogic.onmicrosoft.com",
        "imageUrl": "https://dondanish.visualstudio.com/_api/_common/identityImage?id=364c6353-7bf5-68d0-81a3-58c77e99bf62",
        "descriptor": "aad.MzY0YzYzNTMtN2JmNS03OGQwLTgxYTMtNThjNzdlOTliZjYy"
      },
      "variables": {
        "firstDeploy": {
          "value": "No"
        }
      },
      "variableGroups": [],
      "preDeployApprovals": {
        "approvals": [
          {
            "rank": 1,
            "isAutomated": true,
            "isNotificationOn": false,
            "id": 2
          }
        ],
        "approvalOptions": {
          "requiredApproverCount": null,
          "releaseCreatorCanBeApprover": false,
          "autoTriggeredAndPreviousEnvironmentApprovedCanBeSkipped": false,
          "enforceIdentityRevalidation": false,
          "timeoutInMinutes": 0,
          "executionOrder": 1
        }
      },
      "deployStep": {
        "id": 13
      },
      "postDeployApprovals": {
        "approvals": [
          {
            "rank": 1,
            "isAutomated": true,
            "isNotificationOn": false,
            "id": 16
          }
        ],
        "approvalOptions": {
          "requiredApproverCount": null,
          "releaseCreatorCanBeApprover": false,
          "autoTriggeredAndPreviousEnvironmentApprovedCanBeSkipped": false,
          "enforceIdentityRevalidation": false,
          "timeoutInMinutes": 0,
          "executionOrder": 2
        }
      },
      "deployPhases": [
        {
          "deploymentInput": {
            "parallelExecution": {
              "parallelExecutionType": "none"
            },
            "skipArtifactsDownload": false,
            "artifactsDownloadInput": {
              "downloadInputs": []
            },
            "queueId": 106,
            "demands": [],
            "enableAccessToken": false,
            "timeoutInMinutes": 0,
            "jobCancelTimeoutInMinutes": 1,
            "condition": "succeeded()",
            "overrideInputs": {}
          },
          "rank": 1,
          "phaseType": 1,
          "name": "Agent phase",
          "workflowTasks": [
            {
              "taskId": "5bfb729a-a7c8-4a78-a7c3-8d717bb7c13c",
              "version": "2.*",
              "name": "Copy Files to: temp",
              "refName": "",
              "enabled": true,
              "alwaysRun": false,
              "continueOnError": false,
              "timeoutInMinutes": 0,
              "definitionType": "task",
              "overrideInputs": {},
              "condition": "succeeded()",
              "inputs": {
                "SourceFolder": "$(build.definitionname)/install.sh/",
                "Contents": "**",
                "TargetFolder": "temp",
                "CleanTargetFolder": "false",
                "OverWrite": "false",
                "flattenFolders": "false"
              }
            },
            {
              "taskId": "5bfb729a-a7c8-4a78-a7c3-8d717bb7c13c",
              "version": "2.*",
              "name": "Copy Files to: temp2",
              "refName": "",
              "enabled": true,
              "alwaysRun": false,
              "continueOnError": false,
              "timeoutInMinutes": 0,
              "definitionType": "task",
              "overrideInputs": {},
              "condition": "succeeded()",
              "inputs": {
                "SourceFolder": "$(build.definitionname)/package.zip/",
                "Contents": "**",
                "TargetFolder": "temp",
                "CleanTargetFolder": "false",
                "OverWrite": "false",
                "flattenFolders": "false"
              }
            },
            {
              "taskId": "d9bafed4-0b18-4f58-968d-86655b4d2ce9",
              "version": "1.*",
              "name": "Run chmod install",
              "refName": "",
              "enabled": true,
              "alwaysRun": false,
              "continueOnError": false,
              "timeoutInMinutes": 0,
              "definitionType": "task",
              "overrideInputs": {},
              "condition": "succeeded()",
              "inputs": {
                "filename": "chmod",
                "arguments": "777 temp/install.sh",
                "workingFolder": "",
                "failOnStandardError": "false"
              }
            },
            {
              "taskId": "d9bafed4-0b18-4f58-968d-86655b4d2ce9",
              "version": "1.*",
              "name": "Run chmod package",
              "refName": "",
              "enabled": true,
              "alwaysRun": false,
              "continueOnError": false,
              "timeoutInMinutes": 0,
              "definitionType": "task",
              "overrideInputs": {},
              "condition": "succeeded()",
              "inputs": {
                "filename": "chmod",
                "arguments": "777 temp/package.zip",
                "workingFolder": "",
                "failOnStandardError": "false"
              }
            },
            {
              "taskId": "94a74903-f93f-4075-884f-dc11f34058b4",
              "version": "2.*",
              "name": "Update Resource Group",
              "refName": "",
              "enabled": true,
              "alwaysRun": false,
              "continueOnError": false,
              "timeoutInMinutes": 0,
              "definitionType": "task",
              "overrideInputs": {},
              "condition": "succeeded()",
              "inputs": {
                "ConnectedServiceName": "4a99f23a-83c4-46f2-94d2-a2b61a0ac2a5",
                "action": "Create Or Update Resource Group",
                "resourceGroupName": "$(resourceGroup)",
                "location": "$(location)",
                "templateLocation": "URL of the file",
                "csmFileLink": "https://bitbucket.org/automationlogic/azure-catalog/raw/$(catalogVersion)/mainTemplate.json",
                "csmParametersFileLink": "https://bitbucket.org/automationlogic/azure-catalog/raw/$(catalogVersion)/parametersTemplate.json",
                "csmFile": "",
                "csmParametersFile": "",
                "overrideParameters": "-appUpload [\"https://$(applicationName)stra.blob.core.windows.net/$(applicationName)cont/package.zip\",\"https://$(applicationName)stra.blob.core.windows.net/$(applicationName)cont/install.sh\"] -adminUsername $(adminUsername) -applicationName $(applicationName) -osPlatform $(osPlatform) -instanceCount $(instanceCount) -databaseSelection $(databaseSelection) -osVersion {$(osVersion)} -instanceSize $(instanceSize) -framework $(framework) -instanceSize $(instanceSize) -networkIpAddress {$(networkIpAddress)} -databaseName $(databaseName) -databaseAdminUsername $(databaseAdminUsername) -applicationPort $(applicationPort) -applicationEnvironment $(applicationEnvironment) -storageAccountID $(storageAccountID) -storageAccountName \"$(applicationName)logsa\" -vaultName $(vaultName) -firstDeploy $(firstDeploy)",
                "deploymentMode": "Incremental",
                "enableDeploymentPrerequisites": "None",
                "deploymentGroupEndpoint": "",
                "project": "",
                "deploymentGroupName": "",
                "copyAzureVMTags": "true",
                "outputVariable": "",
                "deploymentOutputs": ""
              }
            }
          ]
        }
      ],
      "environmentOptions": {
        "emailNotificationType": "OnlyOnFailure",
        "emailRecipients": "release.environment.owner;release.creator",
        "skipArtifactsDownload": false,
        "timeoutInMinutes": 0,
        "enableAccessToken": false,
        "publishDeploymentStatus": true,
        "badgeEnabled": false,
        "autoLinkWorkItems": false
      },
      "demands": [],
      "conditions": [],
      "executionPolicy": {
        "concurrencyCount": 1,
        "queueDepthCount": 0
      },
      "schedules": [],
      "currentRelease": {
        "id": 0,
        "url": "https://dondanish.vsrm.visualstudio.com/final/_apis/Release/releases/0",
        "_links": {}
      },
      "retentionPolicy": {
        "daysToKeep": 30,
        "releasesToKeep": 3,
        "retainBuild": true
      },
      "processParameters": {},
      "properties": {},
      "preDeploymentGates": {
        "id": 0,
        "gatesOptions": null,
        "gates": []
      },
      "postDeploymentGates": {
        "id": 0,
        "gatesOptions": null,
        "gates": []
      },
      "environmentTriggers": [],
      "badgeUrl": "https://dondanish.vsrm.visualstudio.com/_apis/public/Release/badge/d49a4e85-849b-44a7-aa0f-6cd77179e9f4/1/2"
    },
    {
      "id": 3,
      "name": "Security",
      "rank": 3,
      "owner": {
        "displayName": "Danish Muhammad",
        "url": "https://app.vssps.visualstudio.com/A83ddc703-424d-4fe7-83ee-7b1ced79b6ae/_apis/Identities/364c6353-7bf5-68d0-81a3-58c77e99bf62",
        "_links": {
          "avatar": {
            "href": ""
          }
        },
        "id": "364c6353-7bf5-68d0-81a3-58c77e99bf62",
        "uniqueName": "danish@automationlogic.onmicrosoft.com",
        "imageUrl": "https://dondanish.visualstudio.com/_api/_common/identityImage?id=364c6353-7bf5-68d0-81a3-58c77e99bf62",
        "descriptor": "aad.MzY0YzYzNTMtN2JmNS03OGQwLTgxYTMtNThjNzdlOTliZjYy"
      },
      "variables": {},
      "variableGroups": [],
      "preDeployApprovals": {
        "approvals": [
          {
            "rank": 1,
            "isAutomated": true,
            "isNotificationOn": false,
            "id": 3
          }
        ],
        "approvalOptions": {
          "requiredApproverCount": null,
          "releaseCreatorCanBeApprover": false,
          "autoTriggeredAndPreviousEnvironmentApprovedCanBeSkipped": false,
          "enforceIdentityRevalidation": false,
          "timeoutInMinutes": 0,
          "executionOrder": 1
        }
      },
      "deployStep": {
        "id": 12
      },
      "postDeployApprovals": {
        "approvals": [
          {
            "rank": 1,
            "isAutomated": true,
            "isNotificationOn": false,
            "id": 17
          }
        ],
        "approvalOptions": {
          "requiredApproverCount": null,
          "releaseCreatorCanBeApprover": false,
          "autoTriggeredAndPreviousEnvironmentApprovedCanBeSkipped": false,
          "enforceIdentityRevalidation": false,
          "timeoutInMinutes": 0,
          "executionOrder": 2
        }
      },
      "deployPhases": [
        {
          "deploymentInput": {
            "parallelExecution": {
              "parallelExecutionType": "none"
            },
            "skipArtifactsDownload": false,
            "artifactsDownloadInput": {
              "downloadInputs": []
            },
            "queueId": 106,
            "demands": [],
            "enableAccessToken": false,
            "timeoutInMinutes": 0,
            "jobCancelTimeoutInMinutes": 1,
            "condition": "succeeded()",
            "overrideInputs": {}
          },
          "rank": 1,
          "phaseType": 1,
          "name": "Agent phase",
          "workflowTasks": []
        }
      ],
      "environmentOptions": {
        "emailNotificationType": "OnlyOnFailure",
        "emailRecipients": "release.environment.owner;release.creator",
        "skipArtifactsDownload": false,
        "timeoutInMinutes": 0,
        "enableAccessToken": false,
        "publishDeploymentStatus": true,
        "badgeEnabled": false,
        "autoLinkWorkItems": false
      },
      "demands": [],
      "conditions": [
        {
          "name": "Update",
          "conditionType": 2,
          "value": "4"
        }
      ],
      "executionPolicy": {
        "concurrencyCount": 1,
        "queueDepthCount": 0
      },
      "schedules": [],
      "currentRelease": {
        "id": 0,
        "url": "https://dondanish.vsrm.visualstudio.com/final/_apis/Release/releases/0",
        "_links": {}
      },
      "retentionPolicy": {
        "daysToKeep": 30,
        "releasesToKeep": 3,
        "retainBuild": true
      },
      "processParameters": {},
      "properties": {},
      "preDeploymentGates": {
        "id": 0,
        "gatesOptions": null,
        "gates": []
      },
      "postDeploymentGates": {
        "id": 0,
        "gatesOptions": null,
        "gates": []
      },
      "environmentTriggers": [],
      "badgeUrl": "https://dondanish.vsrm.visualstudio.com/_apis/public/Release/badge/d49a4e85-849b-44a7-aa0f-6cd77179e9f4/1/3"
    },
    {
      "id": 4,
      "name": "Performance",
      "rank": 4,
      "owner": {
        "displayName": "Danish Muhammad",
        "url": "https://app.vssps.visualstudio.com/A83ddc703-424d-4fe7-83ee-7b1ced79b6ae/_apis/Identities/364c6353-7bf5-68d0-81a3-58c77e99bf62",
        "_links": {
          "avatar": {
            "href": ""
          }
        },
        "id": "364c6353-7bf5-68d0-81a3-58c77e99bf62",
        "uniqueName": "danish@automationlogic.onmicrosoft.com",
        "imageUrl": "https://dondanish.visualstudio.com/_api/_common/identityImage?id=364c6353-7bf5-68d0-81a3-58c77e99bf62",
        "descriptor": "aad.MzY0YzYzNTMtN2JmNS03OGQwLTgxYTMtNThjNzdlOTliZjYy"
      },
      "variables": {},
      "variableGroups": [],
      "preDeployApprovals": {
        "approvals": [
          {
            "rank": 1,
            "isAutomated": true,
            "isNotificationOn": false,
            "id": 4
          }
        ],
        "approvalOptions": {
          "requiredApproverCount": null,
          "releaseCreatorCanBeApprover": false,
          "autoTriggeredAndPreviousEnvironmentApprovedCanBeSkipped": false,
          "enforceIdentityRevalidation": false,
          "timeoutInMinutes": 0,
          "executionOrder": 1
        }
      },
      "deployStep": {
        "id": 11
      },
      "postDeployApprovals": {
        "approvals": [
          {
            "rank": 1,
            "isAutomated": true,
            "isNotificationOn": false,
            "id": 18
          }
        ],
        "approvalOptions": {
          "requiredApproverCount": null,
          "releaseCreatorCanBeApprover": false,
          "autoTriggeredAndPreviousEnvironmentApprovedCanBeSkipped": false,
          "enforceIdentityRevalidation": false,
          "timeoutInMinutes": 0,
          "executionOrder": 2
        }
      },
      "deployPhases": [
        {
          "deploymentInput": {
            "parallelExecution": {
              "parallelExecutionType": "none"
            },
            "skipArtifactsDownload": false,
            "artifactsDownloadInput": {
              "downloadInputs": []
            },
            "queueId": 106,
            "demands": [],
            "enableAccessToken": false,
            "timeoutInMinutes": 0,
            "jobCancelTimeoutInMinutes": 1,
            "condition": "succeeded()",
            "overrideInputs": {}
          },
          "rank": 1,
          "phaseType": 1,
          "name": "Agent phase",
          "workflowTasks": []
        }
      ],
      "environmentOptions": {
        "emailNotificationType": "OnlyOnFailure",
        "emailRecipients": "release.environment.owner;release.creator",
        "skipArtifactsDownload": false,
        "timeoutInMinutes": 0,
        "enableAccessToken": false,
        "publishDeploymentStatus": true,
        "badgeEnabled": false,
        "autoLinkWorkItems": false
      },
      "demands": [],
      "conditions": [
        {
          "name": "Update",
          "conditionType": 2,
          "value": "4"
        }
      ],
      "executionPolicy": {
        "concurrencyCount": 1,
        "queueDepthCount": 0
      },
      "schedules": [],
      "currentRelease": {
        "id": 0,
        "url": "https://dondanish.vsrm.visualstudio.com/final/_apis/Release/releases/0",
        "_links": {}
      },
      "retentionPolicy": {
        "daysToKeep": 30,
        "releasesToKeep": 3,
        "retainBuild": true
      },
      "processParameters": {},
      "properties": {},
      "preDeploymentGates": {
        "id": 0,
        "gatesOptions": null,
        "gates": []
      },
      "postDeploymentGates": {
        "id": 0,
        "gatesOptions": null,
        "gates": []
      },
      "environmentTriggers": [],
      "badgeUrl": "https://dondanish.vsrm.visualstudio.com/_apis/public/Release/badge/d49a4e85-849b-44a7-aa0f-6cd77179e9f4/1/4"
    },
    {
      "id": 5,
      "name": "UI",
      "rank": 5,
      "owner": {
        "displayName": "Danish Muhammad",
        "url": "https://app.vssps.visualstudio.com/A83ddc703-424d-4fe7-83ee-7b1ced79b6ae/_apis/Identities/364c6353-7bf5-68d0-81a3-58c77e99bf62",
        "_links": {
          "avatar": {
            "href": ""
          }
        },
        "id": "364c6353-7bf5-68d0-81a3-58c77e99bf62",
        "uniqueName": "danish@automationlogic.onmicrosoft.com",
        "imageUrl": "https://dondanish.visualstudio.com/_api/_common/identityImage?id=364c6353-7bf5-68d0-81a3-58c77e99bf62",
        "descriptor": "aad.MzY0YzYzNTMtN2JmNS03OGQwLTgxYTMtNThjNzdlOTliZjYy"
      },
      "variables": {},
      "variableGroups": [],
      "preDeployApprovals": {
        "approvals": [
          {
            "rank": 1,
            "isAutomated": true,
            "isNotificationOn": false,
            "id": 5
          }
        ],
        "approvalOptions": {
          "requiredApproverCount": null,
          "releaseCreatorCanBeApprover": false,
          "autoTriggeredAndPreviousEnvironmentApprovedCanBeSkipped": false,
          "enforceIdentityRevalidation": false,
          "timeoutInMinutes": 0,
          "executionOrder": 1
        }
      },
      "deployStep": {
        "id": 10
      },
      "postDeployApprovals": {
        "approvals": [
          {
            "rank": 1,
            "isAutomated": true,
            "isNotificationOn": false,
            "id": 19
          }
        ],
        "approvalOptions": {
          "requiredApproverCount": null,
          "releaseCreatorCanBeApprover": false,
          "autoTriggeredAndPreviousEnvironmentApprovedCanBeSkipped": false,
          "enforceIdentityRevalidation": false,
          "timeoutInMinutes": 0,
          "executionOrder": 2
        }
      },
      "deployPhases": [
        {
          "deploymentInput": {
            "parallelExecution": {
              "parallelExecutionType": "none"
            },
            "skipArtifactsDownload": false,
            "artifactsDownloadInput": {
              "downloadInputs": []
            },
            "queueId": 106,
            "demands": [],
            "enableAccessToken": false,
            "timeoutInMinutes": 0,
            "jobCancelTimeoutInMinutes": 1,
            "condition": "succeeded()",
            "overrideInputs": {}
          },
          "rank": 1,
          "phaseType": 1,
          "name": "Agent phase",
          "workflowTasks": []
        }
      ],
      "environmentOptions": {
        "emailNotificationType": "OnlyOnFailure",
        "emailRecipients": "release.environment.owner;release.creator",
        "skipArtifactsDownload": false,
        "timeoutInMinutes": 0,
        "enableAccessToken": false,
        "publishDeploymentStatus": true,
        "badgeEnabled": false,
        "autoLinkWorkItems": false
      },
      "demands": [],
      "conditions": [
        {
          "name": "Update",
          "conditionType": 2,
          "value": "4"
        }
      ],
      "executionPolicy": {
        "concurrencyCount": 1,
        "queueDepthCount": 0
      },
      "schedules": [],
      "currentRelease": {
        "id": 0,
        "url": "https://dondanish.vsrm.visualstudio.com/final/_apis/Release/releases/0",
        "_links": {}
      },
      "retentionPolicy": {
        "daysToKeep": 30,
        "releasesToKeep": 3,
        "retainBuild": true
      },
      "processParameters": {},
      "properties": {},
      "preDeploymentGates": {
        "id": 0,
        "gatesOptions": null,
        "gates": []
      },
      "postDeploymentGates": {
        "id": 0,
        "gatesOptions": null,
        "gates": []
      },
      "environmentTriggers": [],
      "badgeUrl": "https://dondanish.vsrm.visualstudio.com/_apis/public/Release/badge/d49a4e85-849b-44a7-aa0f-6cd77179e9f4/1/5"
    },
    {
      "id": 6,
      "name": "Notify Updated",
      "rank": 6,
      "owner": {
        "displayName": "Danish Muhammad",
        "url": "https://app.vssps.visualstudio.com/A83ddc703-424d-4fe7-83ee-7b1ced79b6ae/_apis/Identities/364c6353-7bf5-68d0-81a3-58c77e99bf62",
        "_links": {
          "avatar": {
            "href": ""
          }
        },
        "id": "364c6353-7bf5-68d0-81a3-58c77e99bf62",
        "uniqueName": "danish@automationlogic.onmicrosoft.com",
        "imageUrl": "https://dondanish.visualstudio.com/_api/_common/identityImage?id=364c6353-7bf5-68d0-81a3-58c77e99bf62",
        "descriptor": "aad.MzY0YzYzNTMtN2JmNS03OGQwLTgxYTMtNThjNzdlOTliZjYy"
      },
      "variables": {},
      "variableGroups": [],
      "preDeployApprovals": {
        "approvals": [
          {
            "rank": 1,
            "isAutomated": true,
            "isNotificationOn": false,
            "id": 6
          }
        ],
        "approvalOptions": {
          "requiredApproverCount": null,
          "releaseCreatorCanBeApprover": false,
          "autoTriggeredAndPreviousEnvironmentApprovedCanBeSkipped": false,
          "enforceIdentityRevalidation": false,
          "timeoutInMinutes": 0,
          "executionOrder": 1
        }
      },
      "deployStep": {
        "id": 9
      },
      "postDeployApprovals": {
        "approvals": [
          {
            "rank": 1,
            "isAutomated": true,
            "isNotificationOn": false,
            "id": 20
          }
        ],
        "approvalOptions": {
          "requiredApproverCount": null,
          "releaseCreatorCanBeApprover": false,
          "autoTriggeredAndPreviousEnvironmentApprovedCanBeSkipped": false,
          "enforceIdentityRevalidation": false,
          "timeoutInMinutes": 0,
          "executionOrder": 2
        }
      },
      "deployPhases": [
        {
          "deploymentInput": {
            "parallelExecution": {
              "parallelExecutionType": "none"
            },
            "skipArtifactsDownload": false,
            "artifactsDownloadInput": {
              "downloadInputs": []
            },
            "queueId": 106,
            "demands": [],
            "enableAccessToken": false,
            "timeoutInMinutes": 0,
            "jobCancelTimeoutInMinutes": 1,
            "condition": "succeeded()",
            "overrideInputs": {}
          },
          "rank": 1,
          "phaseType": 1,
          "name": "Agent phase",
          "workflowTasks": []
        }
      ],
      "environmentOptions": {
        "emailNotificationType": "OnlyOnFailure",
        "emailRecipients": "release.environment.owner;release.creator",
        "skipArtifactsDownload": false,
        "timeoutInMinutes": 0,
        "enableAccessToken": false,
        "publishDeploymentStatus": true,
        "badgeEnabled": false,
        "autoLinkWorkItems": false
      },
      "demands": [],
      "conditions": [
        {
          "name": "Security",
          "conditionType": 2,
          "value": "4"
        },
        {
          "name": "Performance",
          "conditionType": 2,
          "value": "4"
        },
        {
          "name": "UI",
          "conditionType": 2,
          "value": "4"
        }
      ],
      "executionPolicy": {
        "concurrencyCount": 1,
        "queueDepthCount": 0
      },
      "schedules": [],
      "currentRelease": {
        "id": 0,
        "url": "https://dondanish.vsrm.visualstudio.com/final/_apis/Release/releases/0",
        "_links": {}
      },
      "retentionPolicy": {
        "daysToKeep": 30,
        "releasesToKeep": 3,
        "retainBuild": true
      },
      "processParameters": {},
      "properties": {},
      "preDeploymentGates": {
        "id": 0,
        "gatesOptions": null,
        "gates": []
      },
      "postDeploymentGates": {
        "id": 0,
        "gatesOptions": null,
        "gates": []
      },
      "environmentTriggers": [],
      "badgeUrl": "https://dondanish.vsrm.visualstudio.com/_apis/public/Release/badge/d49a4e85-849b-44a7-aa0f-6cd77179e9f4/1/6"
    },
    {
      "id": 7,
      "name": "Destroy",
      "rank": 7,
      "owner": {
        "displayName": "Danish Muhammad",
        "url": "https://app.vssps.visualstudio.com/A83ddc703-424d-4fe7-83ee-7b1ced79b6ae/_apis/Identities/364c6353-7bf5-68d0-81a3-58c77e99bf62",
        "_links": {
          "avatar": {
            "href": ""
          }
        },
        "id": "364c6353-7bf5-68d0-81a3-58c77e99bf62",
        "uniqueName": "danish@automationlogic.onmicrosoft.com",
        "imageUrl": "https://dondanish.visualstudio.com/_api/_common/identityImage?id=364c6353-7bf5-68d0-81a3-58c77e99bf62",
        "descriptor": "aad.MzY0YzYzNTMtN2JmNS03OGQwLTgxYTMtNThjNzdlOTliZjYy"
      },
      "variables": {},
      "variableGroups": [],
      "preDeployApprovals": {
        "approvals": [
          {
            "rank": 1,
            "isAutomated": true,
            "isNotificationOn": false,
            "id": 7
          }
        ],
        "approvalOptions": {
          "requiredApproverCount": null,
          "releaseCreatorCanBeApprover": false,
          "autoTriggeredAndPreviousEnvironmentApprovedCanBeSkipped": false,
          "enforceIdentityRevalidation": false,
          "timeoutInMinutes": 0,
          "executionOrder": 1
        }
      },
      "deployStep": {
        "id": 8
      },
      "postDeployApprovals": {
        "approvals": [
          {
            "rank": 1,
            "isAutomated": true,
            "isNotificationOn": false,
            "id": 21
          }
        ],
        "approvalOptions": {
          "requiredApproverCount": null,
          "releaseCreatorCanBeApprover": false,
          "autoTriggeredAndPreviousEnvironmentApprovedCanBeSkipped": false,
          "enforceIdentityRevalidation": false,
          "timeoutInMinutes": 0,
          "executionOrder": 2
        }
      },
      "deployPhases": [
        {
          "deploymentInput": {
            "parallelExecution": {
              "parallelExecutionType": "none"
            },
            "skipArtifactsDownload": false,
            "artifactsDownloadInput": {
              "downloadInputs": []
            },
            "queueId": 106,
            "demands": [],
            "enableAccessToken": false,
            "timeoutInMinutes": 0,
            "jobCancelTimeoutInMinutes": 1,
            "condition": "succeeded()",
            "overrideInputs": {}
          },
          "rank": 1,
          "phaseType": 1,
          "name": "Agent phase",
          "workflowTasks": [
            {
              "taskId": "94a74903-f93f-4075-884f-dc11f34058b4",
              "version": "2.*",
              "name": "Delete resource group (Infrastructure)",
              "refName": "",
              "enabled": true,
              "alwaysRun": false,
              "continueOnError": false,
              "timeoutInMinutes": 0,
              "definitionType": "task",
              "overrideInputs": {},
              "condition": "succeeded()",
              "inputs": {
                "ConnectedServiceName": "4a99f23a-83c4-46f2-94d2-a2b61a0ac2a5",
                "action": "DeleteRG",
                "resourceGroupName": "$(resourceGroup)",
                "location": "",
                "templateLocation": "Linked artifact",
                "csmFileLink": "",
                "csmParametersFileLink": "",
                "csmFile": "",
                "csmParametersFile": "",
                "overrideParameters": "",
                "deploymentMode": "Incremental",
                "enableDeploymentPrerequisites": "None",
                "deploymentGroupEndpoint": "",
                "project": "",
                "deploymentGroupName": "",
                "copyAzureVMTags": "true",
                "outputVariable": "",
                "deploymentOutputs": ""
              }
            },
            {
              "taskId": "94a74903-f93f-4075-884f-dc11f34058b4",
              "version": "2.*",
              "name": "Delete resource group (Logs)",
              "refName": "",
              "enabled": true,
              "alwaysRun": false,
              "continueOnError": false,
              "timeoutInMinutes": 0,
              "definitionType": "task",
              "overrideInputs": {},
              "condition": "succeeded()",
              "inputs": {
                "ConnectedServiceName": "4a99f23a-83c4-46f2-94d2-a2b61a0ac2a5",
                "action": "DeleteRG",
                "resourceGroupName": "$(resourceGroup)logrg",
                "location": "",
                "templateLocation": "Linked artifact",
                "csmFileLink": "",
                "csmParametersFileLink": "",
                "csmFile": "",
                "csmParametersFile": "",
                "overrideParameters": "",
                "deploymentMode": "Incremental",
                "enableDeploymentPrerequisites": "None",
                "deploymentGroupEndpoint": "",
                "project": "",
                "deploymentGroupName": "",
                "copyAzureVMTags": "true",
                "outputVariable": "",
                "deploymentOutputs": ""
              }
            }
          ]
        }
      ],
      "environmentOptions": {
        "emailNotificationType": "OnlyOnFailure",
        "emailRecipients": "release.environment.owner;release.creator",
        "skipArtifactsDownload": false,
        "timeoutInMinutes": 0,
        "enableAccessToken": false,
        "publishDeploymentStatus": true,
        "badgeEnabled": false,
        "autoLinkWorkItems": false
      },
      "demands": [],
      "conditions": [],
      "executionPolicy": {
        "concurrencyCount": 1,
        "queueDepthCount": 0
      },
      "schedules": [],
      "currentRelease": {
        "id": 0,
        "url": "https://dondanish.vsrm.visualstudio.com/final/_apis/Release/releases/0",
        "_links": {}
      },
      "retentionPolicy": {
        "daysToKeep": 30,
        "releasesToKeep": 3,
        "retainBuild": true
      },
      "processParameters": {},
      "properties": {},
      "preDeploymentGates": {
        "id": 0,
        "gatesOptions": null,
        "gates": []
      },
      "postDeploymentGates": {
        "id": 0,
        "gatesOptions": null,
        "gates": []
      },
      "environmentTriggers": [],
      "badgeUrl": "https://dondanish.vsrm.visualstudio.com/_apis/public/Release/badge/d49a4e85-849b-44a7-aa0f-6cd77179e9f4/1/7"
    }
  ],
  "artifacts": [
    {
      "sourceId": "d49a4e85-849b-44a7-aa0f-6cd77179e9f4:25",
      "type": "Build",
      "alias": "nodejs-vmscaleset",
      "definitionReference": {
        "artifactSourceDefinitionUrl": {
          "id": "https://dondanish.visualstudio.com/_permalink/_build/index?collectionId=6a7eb240-f5eb-4d9d-bd1f-958f84caa4ab&projectId=d49a4e85-849b-44a7-aa0f-6cd77179e9f4&definitionId=25",
          "name": ""
        },
        "defaultVersionBranch": {
          "id": "",
          "name": ""
        },
        "defaultVersionSpecific": {
          "id": "",
          "name": ""
        },
        "defaultVersionTags": {
          "id": "",
          "name": ""
        },
        "defaultVersionType": {
          "id": "latestType",
          "name": "Latest"
        },
        "definition": {
          "id": "25",
          "name": "nodejs-vmscaleset"
        },
        "project": {
          "id": "d49a4e85-849b-44a7-aa0f-6cd77179e9f4",
          "name": "final"
        }
      },
      "isPrimary": true
    }
  ],
  "triggers": [],
  "releaseNameFormat": "Release-$(rev:r)",
  "url": "https://dondanish.vsrm.visualstudio.com/d49a4e85-849b-44a7-aa0f-6cd77179e9f4/_apis/Release/definitions/1",
  "_links": {
    "self": {
      "href": "https://dondanish.vsrm.visualstudio.com/d49a4e85-849b-44a7-aa0f-6cd77179e9f4/_apis/Release/definitions/1"
    },
    "web": {
      "href": "https://dondanish.visualstudio.com/d49a4e85-849b-44a7-aa0f-6cd77179e9f4/_release?definitionId=1"
    }
  },
  "tags": [],
  "properties": {
    "DefinitionCreationSource": {
      "$type": "System.String",
      "$value": "ReleaseNew"
    }
  }
}
