{
  "source": 2,
  "id": 24,
  "revision": 99,
  "name": "NodeJS-VMScaleSet",
  "description": null,
  "createdBy": {
    "displayName": "George Cairns",
    "url": "https://app.vssps.visualstudio.com/Aa3ec5570-8376-440c-8edd-7131daadf5fa/_apis/Identities/c97200ce-c5ff-6b30-a5b6-d7ff263a60b6",
    "id": "c97200ce-c5ff-6b30-a5b6-d7ff263a60b6",
    "uniqueName": "george@automationlogic.com",
    "imageUrl": "https://gc-al-1.visualstudio.com/_api/_common/identityImage?id=c97200ce-c5ff-6b30-a5b6-d7ff263a60b6",
    "descriptor": "msa.Yzk3MjAwY2UtYzVmZi03YjMwLWE1YjYtZDdmZjI2M2E2MGI2"
  },
  "createdOn": "2018-02-27T11:45:41.953Z",
  "modifiedBy": {
    "displayName": "George Cairns",
    "url": "https://app.vssps.visualstudio.com/Aa3ec5570-8376-440c-8edd-7131daadf5fa/_apis/Identities/c97200ce-c5ff-6b30-a5b6-d7ff263a60b6",
    "id": "c97200ce-c5ff-6b30-a5b6-d7ff263a60b6",
    "uniqueName": "george@automationlogic.com",
    "imageUrl": "https://gc-al-1.visualstudio.com/_api/_common/identityImage?id=c97200ce-c5ff-6b30-a5b6-d7ff263a60b6",
    "descriptor": "msa.Yzk3MjAwY2UtYzVmZi03YjMwLWE1YjYtZDdmZjI2M2E2MGI2"
  },
  "modifiedOn": "2018-03-07T23:13:54.673Z",
  "isDeleted": false,
  "path": "\\",
  "variables": {
    "applicationName": {
      "value": "nvm1520456152"
    },
    "databaseAdminPassword": {
      "value": "TestP4SSw0r1.3!"
    },
    "databaseAdminUsername": {
      "value": "ALAdminDBUser"
    },
    "databaseName": {
      "value": "nvmdb1520456152"
    },
    "location": {
      "value": "westeurope"
    }
  },
  "variableGroups": [],
  "environments": [
    {
      "id": 185,
      "name": "Deploy",
      "rank": 1,
      "owner": {
        "displayName": "George Cairns",
        "url": "https://app.vssps.visualstudio.com/Aa3ec5570-8376-440c-8edd-7131daadf5fa/_apis/Identities/c97200ce-c5ff-6b30-a5b6-d7ff263a60b6",
        "id": "c97200ce-c5ff-6b30-a5b6-d7ff263a60b6",
        "uniqueName": "george@automationlogic.com",
        "imageUrl": "https://gc-al-1.visualstudio.com/_api/_common/identityImage?id=c97200ce-c5ff-6b30-a5b6-d7ff263a60b6",
        "descriptor": "msa.Yzk3MjAwY2UtYzVmZi03YjMwLWE1YjYtZDdmZjI2M2E2MGI2"
      },
      "variables": {
        "adminPassword": {
          "value": "TestP4SSw0r1.3!"
        },
        "adminUsername": {
          "value": "aladminuser"
        },
        "applicationEnvironment": {
          "value": "dev"
        },
        "applicationPort": {
          "value": "3000"
        },
        "databaseSelection": {
          "value": "MySQL"
        },
        "framework": {
          "value": "nodejs"
        },
        "instanceCount": {
          "value": "1"
        },
        "instanceSize": {
          "value": "Standard_A1"
        },
        "networkIpAddress": {
          "value": "\"name\":\"ip01\",\"resourceGroup\":\"nvm1520456152\",\"domainNameLabel\":\"nvm1520456152\",\"publicIPAllocationMethod\":\"static\",\"newOrExistingOrNone\":\"new\""
        },
        "osPlatform": {
          "value": "Linux"
        },
        "osVersion": {
          "value": "\"publisher\":\"Canonical\",\"offer\":\"UbuntuServer\",\"sku\":\"16.04.0-LTS\",\"version\":\"latest\""
        },
        "resourceGroup": {
          "value": "gc-resgrp-11"
        }
      },
      "variableGroups": [],
      "preDeployApprovals": {
        "approvals": [
          {
            "rank": 1,
            "isAutomated": true,
            "isNotificationOn": false,
            "id": 553
          }
        ],
        "approvalOptions": {
          "requiredApproverCount": null,
          "releaseCreatorCanBeApprover": false,
          "autoTriggeredAndPreviousEnvironmentApprovedCanBeSkipped": false,
          "enforceIdentityRevalidation": false,
          "timeoutInMinutes": 0,
          "executionOrder": 1
        }
      },
      "deployStep": {
        "id": 564
      },
      "postDeployApprovals": {
        "approvals": [
          {
            "rank": 1,
            "isAutomated": true,
            "isNotificationOn": false,
            "id": 565
          }
        ],
        "approvalOptions": {
          "requiredApproverCount": null,
          "releaseCreatorCanBeApprover": false,
          "autoTriggeredAndPreviousEnvironmentApprovedCanBeSkipped": false,
          "enforceIdentityRevalidation": false,
          "timeoutInMinutes": 0,
          "executionOrder": 2
        }
      },
      "deployPhases": [
        {
          "deploymentInput": {
            "parallelExecution": {
              "parallelExecutionType": "none"
            },
            "skipArtifactsDownload": false,
            "artifactsDownloadInput": {
              "downloadInputs": []
            },
            "queueId": 23,
            "demands": [],
            "enableAccessToken": false,
            "timeoutInMinutes": 0,
            "jobCancelTimeoutInMinutes": 1,
            "condition": "succeeded()",
            "overrideInputs": {}
          },
          "rank": 1,
          "phaseType": 1,
          "name": "Agent phase",
          "workflowTasks": [
            {
              "taskId": "94a74903-f93f-4075-884f-dc11f34058b4",
              "version": "2.*",
              "name": "Create Storage Account for Logs",
              "refName": "",
              "enabled": true,
              "alwaysRun": false,
              "continueOnError": false,
              "timeoutInMinutes": 0,
              "definitionType": "task",
              "overrideInputs": {},
              "condition": "succeeded()",
              "inputs": {
                "ConnectedServiceName": "d507e65f-d720-42be-8527-a0be8d2425aa",
                "action": "Create Or Update Resource Group",
                "resourceGroupName": "$(resourceGroup)logrg",
                "location": "$(location)",
                "templateLocation": "URL of the file",
                "csmFileLink": "https://bitbucket.org/automationlogic/azure-catalog/raw/3ca0964b3c39aeab8de06cb0739270bd2ac68ed3/storage.json",
                "csmParametersFileLink": "https://bitbucket.org/automationlogic/azure-catalog/raw/3ca0964b3c39aeab8de06cb0739270bd2ac68ed3/parameters.storage.json",
                "csmFile": "https://bitbucket.org/automationlogic/azure-catalog/raw/695ead0e99ec94001d446c4b538a02dd7263274d/storage.json",
                "csmParametersFile": "$(System.DefaultWorkingDirectory)/AzureCatalog/vstsIntegration/parametersStorage.json",
                "overrideParameters": "-location \"$(location)\" -storageAccountApplication \"$(applicationName)logsa\" -storageAccountType \"Standard_LRS\"",
                "deploymentMode": "Incremental",
                "enableDeploymentPrerequisites": "None",
                "deploymentGroupEndpoint": "",
                "project": "",
                "deploymentGroupName": "",
                "copyAzureVMTags": "true",
                "outputVariable": "",
                "deploymentOutputs": ""
              }
            },
            {
              "taskId": "46e4be58-730b-4389-8a2f-ea10b3e5e815",
              "version": "1.*",
              "name": "Set log storage account id as a var",
              "refName": "",
              "enabled": true,
              "alwaysRun": false,
              "continueOnError": false,
              "timeoutInMinutes": 0,
              "definitionType": "task",
              "overrideInputs": {},
              "condition": "succeeded()",
              "inputs": {
                "connectedServiceNameARM": "d507e65f-d720-42be-8527-a0be8d2425aa",
                "scriptLocation": "inlineScript",
                "scriptPath": "",
                "inlineScript": "#!/bin/bash\necho \"##vso[task.setvariable variable=storageAccountID]`az storage account list --resource-group $(resourceGroup)logrg | jq .[].id`\"\n",
                "args": "",
                "cwd": "",
                "failOnStandardError": "true"
              }
            },
            {
              "taskId": "46e4be58-730b-4389-8a2f-ea10b3e5e815",
              "version": "1.*",
              "name": "Enable audit logging and point to log storage",
              "refName": "",
              "enabled": true,
              "alwaysRun": false,
              "continueOnError": false,
              "timeoutInMinutes": 0,
              "definitionType": "task",
              "overrideInputs": {},
              "condition": "succeeded()",
              "inputs": {
                "connectedServiceNameARM": "d507e65f-d720-42be-8527-a0be8d2425aa",
                "scriptLocation": "inlineScript",
                "scriptPath": "",
                "inlineScript": "#!/bin/bash\naz monitor log-profiles create --days 365 -n \"log-profile\" --enabled true --locations $(location) --location $(location) --categories Write Delete Action --storage-account-id $(storageAccountID)\n",
                "args": "",
                "cwd": "",
                "failOnStandardError": "true"
              }
            },
            {
              "taskId": "94a74903-f93f-4075-884f-dc11f34058b4",
              "version": "2.*",
              "name": "Create Storage Account",
              "refName": "Task1",
              "enabled": true,
              "alwaysRun": false,
              "continueOnError": false,
              "timeoutInMinutes": 0,
              "definitionType": "task",
              "overrideInputs": {},
              "condition": "succeeded()",
              "inputs": {
                "ConnectedServiceName": "d507e65f-d720-42be-8527-a0be8d2425aa",
                "action": "Create Or Update Resource Group",
                "resourceGroupName": "$(resourceGroup)",
                "location": "$(location)",
                "templateLocation": "URL of the file",
                "csmFileLink": "https://bitbucket.org/automationlogic/azure-catalog/raw/3ca0964b3c39aeab8de06cb0739270bd2ac68ed3/storage.json",
                "csmParametersFileLink": "https://bitbucket.org/automationlogic/azure-catalog/raw/3ca0964b3c39aeab8de06cb0739270bd2ac68ed3/parameters.storage.json",
                "csmFile": "https://bitbucket.org/automationlogic/azure-catalog/raw/695ead0e99ec94001d446c4b538a02dd7263274d/storage.json",
                "csmParametersFile": "$(System.DefaultWorkingDirectory)/AzureCatalog/vstsIntegration/parametersStorage.json",
                "overrideParameters": "-location \"$(location)\" -storageAccountApplication \"$(applicationName)stra\" -storageAccountType \"Standard_LRS\"",
                "deploymentMode": "Incremental",
                "enableDeploymentPrerequisites": "None",
                "deploymentGroupEndpoint": "",
                "project": "",
                "deploymentGroupName": "",
                "copyAzureVMTags": "true",
                "outputVariable": "",
                "deploymentOutputs": ""
              }
            },
            {
              "taskId": "46e4be58-730b-4389-8a2f-ea10b3e5e815",
              "version": "1.*",
              "name": "Create Container",
              "refName": "Task2",
              "enabled": true,
              "alwaysRun": false,
              "continueOnError": false,
              "timeoutInMinutes": 0,
              "definitionType": "task",
              "overrideInputs": {},
              "condition": "succeeded()",
              "inputs": {
                "connectedServiceNameARM": "d507e65f-d720-42be-8527-a0be8d2425aa",
                "scriptLocation": "inlineScript",
                "scriptPath": "",
                "inlineScript": "ACCOUNT_KEY=$(az storage account keys list --resource-group $(resourceGroup) --account-name $(applicationName)stra | jq '.[] | .value' | head -1)\n\naz storage container create --account-name $(applicationName)stra --account-key $ACCOUNT_KEY --name $(applicationName)cont\n\naz storage container set-permission --account-name $(applicationName)stra --name $(applicationName)cont --account-key $ACCOUNT_KEY --public-access blob",
                "args": "$(resourceGroup)",
                "cwd": "",
                "failOnStandardError": "true"
              }
            },
            {
              "taskId": "46e4be58-730b-4389-8a2f-ea10b3e5e815",
              "version": "1.*",
              "name": "Upload Application to Storage account",
              "refName": "Task6",
              "enabled": true,
              "alwaysRun": false,
              "continueOnError": true,
              "timeoutInMinutes": 0,
              "definitionType": "task",
              "overrideInputs": {},
              "condition": "succeeded()",
              "inputs": {
                "connectedServiceNameARM": "d507e65f-d720-42be-8527-a0be8d2425aa",
                "scriptLocation": "inlineScript",
                "scriptPath": "",
                "inlineScript": "ACCOUNT_KEY=$(az storage account keys list --resource-group $(resourceGroup) --account-name $(applicationName)stra | jq '.[] | .value' | head -1)\n\naz storage blob upload --container-name \"$(applicationName)cont\" --file ./package.zip/package.zip --name \"package.zip\" --account-name $(applicationName)stra --account-key $ACCOUNT_KEY 2>/dev/null\n\naz storage blob upload --container-name \"$(applicationName)cont\" --file ./install.sh/install.sh --name \"install.sh\" --account-name $(applicationName)stra --account-key $ACCOUNT_KEY 2>/dev/null",
                "args": "",
                "cwd": "$(System.DefaultWorkingDirectory)/DemoApplication-CI",
                "failOnStandardError": "true"
              }
            },
            {
              "taskId": "94a74903-f93f-4075-884f-dc11f34058b4",
              "version": "2.*",
              "name": "Deploy Catalog",
              "refName": "Task3",
              "enabled": true,
              "alwaysRun": false,
              "continueOnError": false,
              "timeoutInMinutes": 0,
              "definitionType": "task",
              "overrideInputs": {},
              "condition": "succeeded()",
              "inputs": {
                "ConnectedServiceName": "d507e65f-d720-42be-8527-a0be8d2425aa",
                "action": "Create Or Update Resource Group",
                "resourceGroupName": "$(resourceGroup)",
                "location": "$(location)",
                "templateLocation": "URL of the file",
                "csmFileLink": "https://bitbucket.org/automationlogic/azure-catalog/raw/master/mainTemplate.json",
                "csmParametersFileLink": "https://bitbucket.org/automationlogic/azure-catalog/raw/master/parametersTemplate.json",
                "csmFile": "temp",
                "csmParametersFile": "",
                "overrideParameters": "-appUpload [\"https://$(applicationName)stra.blob.core.windows.net/$(applicationName)cont/package.zip\",\"https://$(applicationName)stra.blob.core.windows.net/$(applicationName)cont/install.sh\"] -adminUsername $(adminUsername) -applicationName $(applicationName) -osPlatform $(osPlatform) -instanceCount $(instanceCount) -databaseSelection $(databaseSelection) -osVersion {$(osVersion)} -instanceSize $(instanceSize) -framework $(framework) -adminUsername $(adminUsername) -adminPassword $(adminPassword) -instanceSize $(instanceSize) -networkIpAddress {$(networkIpAddress)} -databaseName $(databaseName) -databaseAdminPassword $(databaseAdminPassword) -databaseAdminUsername $(databaseAdminUsername) -applicationPort $(applicationPort) -applicationEnvironment $(applicationEnvironment)  -storageAccountID $(storageAccountID) -storageAccountName \"$(applicationName)logsa\"",
                "deploymentMode": "Incremental",
                "enableDeploymentPrerequisites": "None",
                "deploymentGroupEndpoint": "",
                "project": "",
                "deploymentGroupName": "",
                "copyAzureVMTags": "true",
                "outputVariable": "",
                "deploymentOutputs": ""
              }
            },
            {
              "taskId": "46e4be58-730b-4389-8a2f-ea10b3e5e815",
              "version": "1.*",
              "name": "Deploy database schema",
              "refName": "",
              "enabled": true,
              "alwaysRun": false,
              "continueOnError": true,
              "timeoutInMinutes": 0,
              "definitionType": "task",
              "overrideInputs": {},
              "condition": "succeeded()",
              "inputs": {
                "connectedServiceNameARM": "29ed9897-daf7-4379-b3d4-17f48f0ab5ea",
                "scriptLocation": "inlineScript",
                "scriptPath": "",
                "inlineScript": "#!/bin/bash\n\n##############################\n## Get agents public IP \n##############################\nMYIP=`dig +short myip.opendns.com @resolver1.opendns.com`\n\n##############################\n## create temp firewall rule\n##############################\naz mysql server firewall-rule create --resource-group $(resourceGroup) --server-name $(databaseName) --name agentFirewallRule --start-ip-address $MYIP --end-ip-address $MYIP\n\n##############################\n## insert schema into database\n##############################\nmysql -h $(databaseName).mysql.database.azure.com -u $(databaseAdminUsername)@$(DatabaseName) -p$(databaseAdminPassword)< ./schema/schema.sql\n\n##############################\n## delete temp firewall rule\n##############################\naz mysql server firewall-rule delete --resource-group $(resourceGroup) --server-name $(databaseName) --name agentFirewallRule --yes",
                "args": "",
                "cwd": "$(System.DefaultWorkingDirectory)/$(Build.DefinitionName)",
                "failOnStandardError": "false"
              }
            }
          ]
        }
      ],
      "environmentOptions": {
        "emailNotificationType": "OnlyOnFailure",
        "emailRecipients": "release.environment.owner;release.creator",
        "skipArtifactsDownload": false,
        "timeoutInMinutes": 0,
        "enableAccessToken": false,
        "publishDeploymentStatus": true,
        "badgeEnabled": false,
        "autoLinkWorkItems": false
      },
      "demands": [],
      "conditions": [],
      "executionPolicy": {
        "concurrencyCount": 0,
        "queueDepthCount": 0
      },
      "schedules": [],
      "retentionPolicy": {
        "daysToKeep": 30,
        "releasesToKeep": 3,
        "retainBuild": true
      },
      "processParameters": {},
      "properties": {},
      "preDeploymentGates": {
        "id": 0,
        "gatesOptions": null,
        "gates": []
      },
      "postDeploymentGates": {
        "id": 0,
        "gatesOptions": null,
        "gates": []
      },
      "badgeUrl": "https://gc-al-1.vsrm.visualstudio.com/_apis/public/Release/badge/cb5bdde1-df2d-41f7-9174-30fd20c94648/24/185"
    },
    {
      "id": 186,
      "name": "Update",
      "rank": 2,
      "owner": {
        "displayName": "George Cairns",
        "url": "https://app.vssps.visualstudio.com/Aa3ec5570-8376-440c-8edd-7131daadf5fa/_apis/Identities/c97200ce-c5ff-6b30-a5b6-d7ff263a60b6",
        "id": "c97200ce-c5ff-6b30-a5b6-d7ff263a60b6",
        "uniqueName": "george@automationlogic.com",
        "imageUrl": "https://gc-al-1.visualstudio.com/_api/_common/identityImage?id=c97200ce-c5ff-6b30-a5b6-d7ff263a60b6",
        "descriptor": "msa.Yzk3MjAwY2UtYzVmZi03YjMwLWE1YjYtZDdmZjI2M2E2MGI2"
      },
      "variables": {},
      "variableGroups": [],
      "preDeployApprovals": {
        "approvals": [
          {
            "rank": 1,
            "isAutomated": true,
            "isNotificationOn": false,
            "id": 554
          }
        ],
        "approvalOptions": {
          "requiredApproverCount": null,
          "releaseCreatorCanBeApprover": false,
          "autoTriggeredAndPreviousEnvironmentApprovedCanBeSkipped": false,
          "enforceIdentityRevalidation": false,
          "timeoutInMinutes": 0,
          "executionOrder": 1
        }
      },
      "deployStep": {
        "id": 563
      },
      "postDeployApprovals": {
        "approvals": [
          {
            "rank": 1,
            "isAutomated": true,
            "isNotificationOn": false,
            "id": 566
          }
        ],
        "approvalOptions": {
          "requiredApproverCount": null,
          "releaseCreatorCanBeApprover": false,
          "autoTriggeredAndPreviousEnvironmentApprovedCanBeSkipped": false,
          "enforceIdentityRevalidation": false,
          "timeoutInMinutes": 0,
          "executionOrder": 2
        }
      },
      "deployPhases": [
        {
          "deploymentInput": {
            "parallelExecution": {
              "parallelExecutionType": "none"
            },
            "skipArtifactsDownload": false,
            "artifactsDownloadInput": {
              "downloadInputs": []
            },
            "queueId": 23,
            "demands": [],
            "enableAccessToken": false,
            "timeoutInMinutes": 0,
            "jobCancelTimeoutInMinutes": 1,
            "condition": "succeeded()",
            "overrideInputs": {}
          },
          "rank": 1,
          "phaseType": 1,
          "name": "Agent phase",
          "workflowTasks": [
            {
              "taskId": "5bfb729a-a7c8-4a78-a7c3-8d717bb7c13c",
              "version": "2.*",
              "name": "Copy Files to: temp",
              "refName": "",
              "enabled": true,
              "alwaysRun": false,
              "continueOnError": false,
              "timeoutInMinutes": 0,
              "definitionType": "task",
              "overrideInputs": {},
              "condition": "succeeded()",
              "inputs": {
                "SourceFolder": "$(build.definitionname)/install.sh/",
                "Contents": "**",
                "TargetFolder": "temp",
                "CleanTargetFolder": "false",
                "OverWrite": "false",
                "flattenFolders": "false"
              }
            },
            {
              "taskId": "5bfb729a-a7c8-4a78-a7c3-8d717bb7c13c",
              "version": "2.*",
              "name": "Copy Files to: temp2",
              "refName": "",
              "enabled": true,
              "alwaysRun": false,
              "continueOnError": false,
              "timeoutInMinutes": 0,
              "definitionType": "task",
              "overrideInputs": {},
              "condition": "succeeded()",
              "inputs": {
                "SourceFolder": "$(build.definitionname)/package.zip/",
                "Contents": "**",
                "TargetFolder": "temp",
                "CleanTargetFolder": "false",
                "OverWrite": "false",
                "flattenFolders": "false"
              }
            },
            {
              "taskId": "d9bafed4-0b18-4f58-968d-86655b4d2ce9",
              "version": "1.*",
              "name": "Run chmod install",
              "refName": "",
              "enabled": true,
              "alwaysRun": false,
              "continueOnError": false,
              "timeoutInMinutes": 0,
              "definitionType": "task",
              "overrideInputs": {},
              "condition": "succeeded()",
              "inputs": {
                "filename": "chmod",
                "arguments": "777 temp/install.sh",
                "workingFolder": "",
                "failOnStandardError": "false"
              }
            },
            {
              "taskId": "d9bafed4-0b18-4f58-968d-86655b4d2ce9",
              "version": "1.*",
              "name": "Run chmod package",
              "refName": "",
              "enabled": true,
              "alwaysRun": false,
              "continueOnError": false,
              "timeoutInMinutes": 0,
              "definitionType": "task",
              "overrideInputs": {},
              "condition": "succeeded()",
              "inputs": {
                "filename": "chmod",
                "arguments": "777 temp/package.zip",
                "workingFolder": "",
                "failOnStandardError": "false"
              }
            },
            {
              "taskId": "4dda660c-b643-4598-a4a2-61080d0002d9",
              "version": "0.*",
              "name": "Azure VMSS - Configure application startup",
              "refName": "",
              "enabled": true,
              "alwaysRun": false,
              "continueOnError": false,
              "timeoutInMinutes": 0,
              "definitionType": "task",
              "overrideInputs": {},
              "condition": "succeeded()",
              "inputs": {
                "ConnectedServiceName": "d507e65f-d720-42be-8527-a0be8d2425aa",
                "action": "Configure application startup",
                "vmssName": "$(applicationName)devsclst",
                "vmssOsType": "Linux",
                "imageUrl": "",
                "customScriptsDirectory": "temp",
                "customScript": "install.sh",
                "customScriptArguments": "-a $(databaseAdminUsername) -p $(databaseAdminPassword) -s $(databaseName)",
                "customScriptsStorageAccount": "$(applicationName)stra",
                "skipArchivingCustomScripts": "false"
              }
            }
          ]
        }
      ],
      "environmentOptions": {
        "emailNotificationType": "OnlyOnFailure",
        "emailRecipients": "release.environment.owner;release.creator",
        "skipArtifactsDownload": false,
        "timeoutInMinutes": 0,
        "enableAccessToken": false,
        "publishDeploymentStatus": true,
        "badgeEnabled": false,
        "autoLinkWorkItems": false
      },
      "demands": [],
      "conditions": [],
      "executionPolicy": {
        "concurrencyCount": 1,
        "queueDepthCount": 0
      },
      "schedules": [],
      "retentionPolicy": {
        "daysToKeep": 30,
        "releasesToKeep": 3,
        "retainBuild": true
      },
      "processParameters": {},
      "properties": {},
      "preDeploymentGates": {
        "id": 0,
        "gatesOptions": null,
        "gates": []
      },
      "postDeploymentGates": {
        "id": 0,
        "gatesOptions": null,
        "gates": []
      },
      "badgeUrl": "https://gc-al-1.vsrm.visualstudio.com/_apis/public/Release/badge/cb5bdde1-df2d-41f7-9174-30fd20c94648/24/186"
    },
    {
      "id": 187,
      "name": "Security (OWASP)",
      "rank": 3,
      "owner": {
        "displayName": "George Cairns",
        "url": "https://app.vssps.visualstudio.com/Aa3ec5570-8376-440c-8edd-7131daadf5fa/_apis/Identities/c97200ce-c5ff-6b30-a5b6-d7ff263a60b6",
        "id": "c97200ce-c5ff-6b30-a5b6-d7ff263a60b6",
        "uniqueName": "george@automationlogic.com",
        "imageUrl": "https://gc-al-1.visualstudio.com/_api/_common/identityImage?id=c97200ce-c5ff-6b30-a5b6-d7ff263a60b6",
        "descriptor": "msa.Yzk3MjAwY2UtYzVmZi03YjMwLWE1YjYtZDdmZjI2M2E2MGI2"
      },
      "variables": {},
      "variableGroups": [],
      "preDeployApprovals": {
        "approvals": [
          {
            "rank": 1,
            "isAutomated": true,
            "isNotificationOn": false,
            "id": 555
          }
        ],
        "approvalOptions": {
          "requiredApproverCount": null,
          "releaseCreatorCanBeApprover": false,
          "autoTriggeredAndPreviousEnvironmentApprovedCanBeSkipped": false,
          "enforceIdentityRevalidation": false,
          "timeoutInMinutes": 0,
          "executionOrder": 1
        }
      },
      "deployStep": {
        "id": 562
      },
      "postDeployApprovals": {
        "approvals": [
          {
            "rank": 1,
            "isAutomated": true,
            "isNotificationOn": false,
            "id": 567
          }
        ],
        "approvalOptions": {
          "requiredApproverCount": null,
          "releaseCreatorCanBeApprover": false,
          "autoTriggeredAndPreviousEnvironmentApprovedCanBeSkipped": false,
          "enforceIdentityRevalidation": false,
          "timeoutInMinutes": 0,
          "executionOrder": 2
        }
      },
      "deployPhases": [
        {
          "deploymentInput": {
            "parallelExecution": {
              "parallelExecutionType": "none"
            },
            "skipArtifactsDownload": false,
            "artifactsDownloadInput": {
              "downloadInputs": []
            },
            "queueId": 21,
            "demands": [],
            "enableAccessToken": false,
            "timeoutInMinutes": 0,
            "jobCancelTimeoutInMinutes": 1,
            "condition": "succeeded()",
            "overrideInputs": {}
          },
          "rank": 1,
          "phaseType": 1,
          "name": "Agent phase",
          "workflowTasks": [
            {
              "taskId": "dbe30948-5954-4e03-ab88-b35c3b16ec46",
              "version": "2.*",
              "name": "OWASP ZAP Scan",
              "refName": "",
              "enabled": false,
              "alwaysRun": true,
              "continueOnError": true,
              "timeoutInMinutes": 0,
              "definitionType": "task",
              "overrideInputs": {},
              "condition": "succeeded()",
              "inputs": {
                "ZapApiUrl": "http://51.141.91.161.xip.io/",
                "ZapApiKey": "qef9v4qvu932ec3dqolqig1s5l",
                "TargetUrl": "http://$(applicationName).$(location).cloudapp.azure.com",
                "ExecuteSpiderScan": "true",
                "RecurseSpider": "false",
                "SubtreeOnly": "false",
                "ContextName": "",
                "MaxChildrenToCrawl": "",
                "ExecuteActiveScan": "true",
                "ContextId": "",
                "Recurse": "true",
                "InScopeOnly": "false",
                "ScanPolicyName": "",
                "Method": "",
                "PostData": "",
                "EnableVerifications": "true",
                "MaxHighRiskAlerts": "0",
                "MaxMediumRiskAlerts": "2",
                "MaxLowRiskAlerts": "2",
                "ReportType": "html",
                "ReportFileDestination": "$(System.DefaultWorkingDirectory)",
                "ReportFileName": "OWASP-ZAP-Report-$(Build.BuildId)"
              }
            },
            {
              "taskId": "d9bafed4-0b18-4f58-968d-86655b4d2ce9",
              "version": "1.*",
              "name": "Run 1 minute OWASP ZAP scan",
              "refName": "",
              "enabled": true,
              "alwaysRun": false,
              "continueOnError": false,
              "timeoutInMinutes": 0,
              "definitionType": "task",
              "overrideInputs": {},
              "condition": "succeeded()",
              "inputs": {
                "filename": "docker",
                "arguments": "run -t owasp/zap2docker-stable zap-baseline.py -t http://$(applicationName).$(location).cloudapp.azure.com",
                "workingFolder": "",
                "failOnStandardError": "false"
              }
            }
          ]
        }
      ],
      "environmentOptions": {
        "emailNotificationType": "OnlyOnFailure",
        "emailRecipients": "release.environment.owner;release.creator",
        "skipArtifactsDownload": false,
        "timeoutInMinutes": 0,
        "enableAccessToken": false,
        "publishDeploymentStatus": true,
        "badgeEnabled": false,
        "autoLinkWorkItems": false
      },
      "demands": [],
      "conditions": [
        {
          "name": "Update",
          "conditionType": 2,
          "value": "4"
        }
      ],
      "executionPolicy": {
        "concurrencyCount": 1,
        "queueDepthCount": 0
      },
      "schedules": [],
      "retentionPolicy": {
        "daysToKeep": 30,
        "releasesToKeep": 3,
        "retainBuild": true
      },
      "processParameters": {},
      "properties": {},
      "preDeploymentGates": {
        "id": 0,
        "gatesOptions": null,
        "gates": []
      },
      "postDeploymentGates": {
        "id": 0,
        "gatesOptions": null,
        "gates": []
      },
      "badgeUrl": "https://gc-al-1.vsrm.visualstudio.com/_apis/public/Release/badge/cb5bdde1-df2d-41f7-9174-30fd20c94648/24/187"
    },
    {
      "id": 188,
      "name": "jmeter test",
      "rank": 4,
      "owner": {
        "displayName": "George Cairns",
        "url": "https://app.vssps.visualstudio.com/Aa3ec5570-8376-440c-8edd-7131daadf5fa/_apis/Identities/c97200ce-c5ff-6b30-a5b6-d7ff263a60b6",
        "id": "c97200ce-c5ff-6b30-a5b6-d7ff263a60b6",
        "uniqueName": "george@automationlogic.com",
        "imageUrl": "https://gc-al-1.visualstudio.com/_api/_common/identityImage?id=c97200ce-c5ff-6b30-a5b6-d7ff263a60b6",
        "descriptor": "msa.Yzk3MjAwY2UtYzVmZi03YjMwLWE1YjYtZDdmZjI2M2E2MGI2"
      },
      "variables": {},
      "variableGroups": [],
      "preDeployApprovals": {
        "approvals": [
          {
            "rank": 1,
            "isAutomated": true,
            "isNotificationOn": false,
            "id": 556
          }
        ],
        "approvalOptions": {
          "requiredApproverCount": null,
          "releaseCreatorCanBeApprover": false,
          "autoTriggeredAndPreviousEnvironmentApprovedCanBeSkipped": false,
          "enforceIdentityRevalidation": false,
          "timeoutInMinutes": 0,
          "executionOrder": 1
        }
      },
      "deployStep": {
        "id": 561
      },
      "postDeployApprovals": {
        "approvals": [
          {
            "rank": 1,
            "isAutomated": true,
            "isNotificationOn": false,
            "id": 568
          }
        ],
        "approvalOptions": {
          "requiredApproverCount": null,
          "releaseCreatorCanBeApprover": false,
          "autoTriggeredAndPreviousEnvironmentApprovedCanBeSkipped": false,
          "enforceIdentityRevalidation": false,
          "timeoutInMinutes": 0,
          "executionOrder": 2
        }
      },
      "deployPhases": [
        {
          "deploymentInput": {
            "parallelExecution": {
              "parallelExecutionType": "none"
            },
            "skipArtifactsDownload": false,
            "artifactsDownloadInput": {
              "downloadInputs": []
            },
            "queueId": 24,
            "demands": [],
            "enableAccessToken": false,
            "timeoutInMinutes": 0,
            "jobCancelTimeoutInMinutes": 1,
            "condition": "succeeded()",
            "overrideInputs": {}
          },
          "rank": 1,
          "phaseType": 1,
          "name": "Agent phase",
          "workflowTasks": [
            {
              "taskId": "f20661eb-e0f7-4afd-9a86-9fe9d1a93382",
              "version": "1.*",
              "name": "Apache JMeter Test jmeter.jmx",
              "refName": "",
              "enabled": true,
              "alwaysRun": false,
              "continueOnError": false,
              "timeoutInMinutes": 0,
              "definitionType": "task",
              "overrideInputs": {},
              "condition": "succeeded()",
              "inputs": {
                "connectedServiceName": "",
                "TestDrop": "$(System.DefaultWorkingDirectory)/$(Build.DefinitionName)/jmeter.jmx",
                "LoadTest": "jmeter.jmx",
                "agentCount": "1",
                "runDuration": "60",
                "machineType": "0"
              }
            }
          ]
        }
      ],
      "environmentOptions": {
        "emailNotificationType": "OnlyOnFailure",
        "emailRecipients": "release.environment.owner;release.creator",
        "skipArtifactsDownload": false,
        "timeoutInMinutes": 0,
        "enableAccessToken": false,
        "publishDeploymentStatus": true,
        "badgeEnabled": false,
        "autoLinkWorkItems": false
      },
      "demands": [],
      "conditions": [
        {
          "name": "Update",
          "conditionType": 2,
          "value": "4"
        }
      ],
      "executionPolicy": {
        "concurrencyCount": 1,
        "queueDepthCount": 0
      },
      "schedules": [],
      "retentionPolicy": {
        "daysToKeep": 30,
        "releasesToKeep": 3,
        "retainBuild": true
      },
      "processParameters": {},
      "properties": {},
      "preDeploymentGates": {
        "id": 0,
        "gatesOptions": null,
        "gates": []
      },
      "postDeploymentGates": {
        "id": 0,
        "gatesOptions": null,
        "gates": []
      },
      "badgeUrl": "https://gc-al-1.vsrm.visualstudio.com/_apis/public/Release/badge/cb5bdde1-df2d-41f7-9174-30fd20c94648/24/188"
    },
    {
      "id": 189,
      "name": "Selenium",
      "rank": 5,
      "owner": {
        "displayName": "George Cairns",
        "url": "https://app.vssps.visualstudio.com/Aa3ec5570-8376-440c-8edd-7131daadf5fa/_apis/Identities/c97200ce-c5ff-6b30-a5b6-d7ff263a60b6",
        "id": "c97200ce-c5ff-6b30-a5b6-d7ff263a60b6",
        "uniqueName": "george@automationlogic.com",
        "imageUrl": "https://gc-al-1.visualstudio.com/_api/_common/identityImage?id=c97200ce-c5ff-6b30-a5b6-d7ff263a60b6",
        "descriptor": "msa.Yzk3MjAwY2UtYzVmZi03YjMwLWE1YjYtZDdmZjI2M2E2MGI2"
      },
      "variables": {},
      "variableGroups": [],
      "preDeployApprovals": {
        "approvals": [
          {
            "rank": 1,
            "isAutomated": true,
            "isNotificationOn": false,
            "id": 557
          }
        ],
        "approvalOptions": {
          "requiredApproverCount": null,
          "releaseCreatorCanBeApprover": false,
          "autoTriggeredAndPreviousEnvironmentApprovedCanBeSkipped": false,
          "enforceIdentityRevalidation": false,
          "timeoutInMinutes": 0,
          "executionOrder": 1
        }
      },
      "deployStep": {
        "id": 560
      },
      "postDeployApprovals": {
        "approvals": [
          {
            "rank": 1,
            "isAutomated": true,
            "isNotificationOn": false,
            "id": 569
          }
        ],
        "approvalOptions": {
          "requiredApproverCount": null,
          "releaseCreatorCanBeApprover": false,
          "autoTriggeredAndPreviousEnvironmentApprovedCanBeSkipped": false,
          "enforceIdentityRevalidation": false,
          "timeoutInMinutes": 0,
          "executionOrder": 2
        }
      },
      "deployPhases": [
        {
          "deploymentInput": {
            "parallelExecution": {
              "parallelExecutionType": "none"
            },
            "skipArtifactsDownload": false,
            "artifactsDownloadInput": {
              "downloadInputs": []
            },
            "queueId": 21,
            "demands": [],
            "enableAccessToken": false,
            "timeoutInMinutes": 0,
            "jobCancelTimeoutInMinutes": 1,
            "condition": "succeeded()",
            "overrideInputs": {}
          },
          "rank": 1,
          "phaseType": 1,
          "name": "Agent phase",
          "workflowTasks": [
            {
              "taskId": "6975e2d1-96d3-4afc-8a41-498b5d34ea19",
              "version": "0.*",
              "name": "Build Docker Selenium grid",
              "refName": "",
              "enabled": true,
              "alwaysRun": false,
              "continueOnError": false,
              "timeoutInMinutes": 0,
              "definitionType": "task",
              "overrideInputs": {},
              "condition": "succeeded()",
              "inputs": {
                "containerregistrytype": "Azure Container Registry",
                "dockerRegistryEndpoint": "",
                "azureSubscriptionEndpoint": "d507e65f-d720-42be-8527-a0be8d2425aa",
                "azureContainerRegistry": "",
                "dockerComposeFile": "$(System.DefaultWorkingDirectory)/$(Build.DefinitionName)/docker-compose.yml/docker-compose.yml",
                "additionalDockerComposeFiles": "",
                "dockerComposeFileArgs": "",
                "projectName": "$(Build.Repository.Name)",
                "qualifyImageNames": "true",
                "action": "Run services",
                "additionalImageTags": "",
                "includeSourceTags": "false",
                "includeLatestTag": "false",
                "buildImages": "true",
                "serviceName": "",
                "containerName": "",
                "ports": "",
                "workDir": "",
                "entrypoint": "",
                "containerCommand": "",
                "detached": "true",
                "abortOnContainerExit": "true",
                "imageDigestComposeFile": "$(Build.StagingDirectory)/docker-compose.images.yml",
                "removeBuildOptions": "false",
                "baseResolveDirectory": "",
                "outputDockerComposeFile": "$(Build.StagingDirectory)/docker-compose.yml",
                "dockerComposeCommand": "v",
                "dockerHostEndpoint": "",
                "nopIfNoDockerComposeFile": "false",
                "requireAdditionalDockerComposeFiles": "false",
                "cwd": "$(System.DefaultWorkingDirectory)"
              }
            },
            {
              "taskId": "d9bafed4-0b18-4f58-968d-86655b4d2ce9",
              "version": "1.*",
              "name": "Wait for Selenium to become ready",
              "refName": "",
              "enabled": true,
              "alwaysRun": false,
              "continueOnError": false,
              "timeoutInMinutes": 0,
              "definitionType": "task",
              "overrideInputs": {},
              "condition": "succeeded()",
              "inputs": {
                "filename": "sleep",
                "arguments": "10",
                "workingFolder": "",
                "failOnStandardError": "false"
              }
            },
            {
              "taskId": "d9bafed4-0b18-4f58-968d-86655b4d2ce9",
              "version": "1.*",
              "name": "Install python Selenium",
              "refName": "",
              "enabled": false,
              "alwaysRun": false,
              "continueOnError": false,
              "timeoutInMinutes": 0,
              "definitionType": "task",
              "overrideInputs": {},
              "condition": "succeeded()",
              "inputs": {
                "filename": "pip",
                "arguments": "install selenium",
                "workingFolder": "",
                "failOnStandardError": "false"
              }
            },
            {
              "taskId": "d9bafed4-0b18-4f58-968d-86655b4d2ce9",
              "version": "1.*",
              "name": "Run Selenium Tests",
              "refName": "",
              "enabled": true,
              "alwaysRun": false,
              "continueOnError": false,
              "timeoutInMinutes": 0,
              "definitionType": "task",
              "overrideInputs": {},
              "condition": "succeeded()",
              "inputs": {
                "filename": "python",
                "arguments": "$(System.DefaultWorkingDirectory)/$(Build.DefinitionName)/selenium-basic.py/selenium-basic.py http://$(applicationName).$(location).cloudapp.azure.com",
                "workingFolder": "",
                "failOnStandardError": "false"
              }
            },
            {
              "taskId": "6975e2d1-96d3-4afc-8a41-498b5d34ea19",
              "version": "0.*",
              "name": "Stop Docker Selenium Grid",
              "refName": "",
              "enabled": true,
              "alwaysRun": false,
              "continueOnError": false,
              "timeoutInMinutes": 0,
              "definitionType": "task",
              "overrideInputs": {},
              "condition": "succeeded()",
              "inputs": {
                "containerregistrytype": "Azure Container Registry",
                "dockerRegistryEndpoint": "",
                "azureSubscriptionEndpoint": "d507e65f-d720-42be-8527-a0be8d2425aa",
                "azureContainerRegistry": "",
                "dockerComposeFile": "$(System.DefaultWorkingDirectory)/$(Build.DefinitionName)/docker-compose.yml/docker-compose.yml",
                "additionalDockerComposeFiles": "",
                "dockerComposeFileArgs": "",
                "projectName": "$(Build.Repository.Name)",
                "qualifyImageNames": "true",
                "action": "Run a Docker Compose command",
                "additionalImageTags": "",
                "includeSourceTags": "false",
                "includeLatestTag": "false",
                "buildImages": "true",
                "serviceName": "",
                "containerName": "",
                "ports": "",
                "workDir": "",
                "entrypoint": "",
                "containerCommand": "",
                "detached": "true",
                "abortOnContainerExit": "true",
                "imageDigestComposeFile": "$(Build.StagingDirectory)/docker-compose.images.yml",
                "removeBuildOptions": "false",
                "baseResolveDirectory": "",
                "outputDockerComposeFile": "$(Build.StagingDirectory)/docker-compose.yml",
                "dockerComposeCommand": "stop",
                "dockerHostEndpoint": "",
                "nopIfNoDockerComposeFile": "false",
                "requireAdditionalDockerComposeFiles": "false",
                "cwd": "$(System.DefaultWorkingDirectory)"
              }
            },
            {
              "taskId": "6975e2d1-96d3-4afc-8a41-498b5d34ea19",
              "version": "0.*",
              "name": "Remove Docker Selenium Grid",
              "refName": "",
              "enabled": true,
              "alwaysRun": false,
              "continueOnError": false,
              "timeoutInMinutes": 0,
              "definitionType": "task",
              "overrideInputs": {},
              "condition": "succeeded()",
              "inputs": {
                "containerregistrytype": "Azure Container Registry",
                "dockerRegistryEndpoint": "",
                "azureSubscriptionEndpoint": "d507e65f-d720-42be-8527-a0be8d2425aa",
                "azureContainerRegistry": "",
                "dockerComposeFile": "$(System.DefaultWorkingDirectory)/$(Build.DefinitionName)/docker-compose.yml/docker-compose.yml",
                "additionalDockerComposeFiles": "",
                "dockerComposeFileArgs": "",
                "projectName": "$(Build.Repository.Name)",
                "qualifyImageNames": "true",
                "action": "Run a Docker Compose command",
                "additionalImageTags": "",
                "includeSourceTags": "false",
                "includeLatestTag": "false",
                "buildImages": "true",
                "serviceName": "",
                "containerName": "",
                "ports": "",
                "workDir": "",
                "entrypoint": "",
                "containerCommand": "",
                "detached": "true",
                "abortOnContainerExit": "true",
                "imageDigestComposeFile": "$(Build.StagingDirectory)/docker-compose.images.yml",
                "removeBuildOptions": "false",
                "baseResolveDirectory": "",
                "outputDockerComposeFile": "$(Build.StagingDirectory)/docker-compose.yml",
                "dockerComposeCommand": "rm --all -f",
                "dockerHostEndpoint": "",
                "nopIfNoDockerComposeFile": "false",
                "requireAdditionalDockerComposeFiles": "false",
                "cwd": "$(System.DefaultWorkingDirectory)"
              }
            }
          ]
        }
      ],
      "environmentOptions": {
        "emailNotificationType": "OnlyOnFailure",
        "emailRecipients": "release.environment.owner;release.creator",
        "skipArtifactsDownload": false,
        "timeoutInMinutes": 0,
        "enableAccessToken": false,
        "publishDeploymentStatus": true,
        "badgeEnabled": false,
        "autoLinkWorkItems": false
      },
      "demands": [],
      "conditions": [
        {
          "name": "Update",
          "conditionType": 2,
          "value": "4"
        }
      ],
      "executionPolicy": {
        "concurrencyCount": 1,
        "queueDepthCount": 0
      },
      "schedules": [],
      "retentionPolicy": {
        "daysToKeep": 30,
        "releasesToKeep": 3,
        "retainBuild": true
      },
      "processParameters": {},
      "properties": {},
      "preDeploymentGates": {
        "id": 0,
        "gatesOptions": null,
        "gates": []
      },
      "postDeploymentGates": {
        "id": 0,
        "gatesOptions": null,
        "gates": []
      },
      "badgeUrl": "https://gc-al-1.vsrm.visualstudio.com/_apis/public/Release/badge/cb5bdde1-df2d-41f7-9174-30fd20c94648/24/189"
    },
    {
      "id": 190,
      "name": "Notify",
      "rank": 6,
      "owner": {
        "displayName": "George Cairns",
        "url": "https://app.vssps.visualstudio.com/Aa3ec5570-8376-440c-8edd-7131daadf5fa/_apis/Identities/c97200ce-c5ff-6b30-a5b6-d7ff263a60b6",
        "id": "c97200ce-c5ff-6b30-a5b6-d7ff263a60b6",
        "uniqueName": "george@automationlogic.com",
        "imageUrl": "https://gc-al-1.visualstudio.com/_api/_common/identityImage?id=c97200ce-c5ff-6b30-a5b6-d7ff263a60b6",
        "descriptor": "msa.Yzk3MjAwY2UtYzVmZi03YjMwLWE1YjYtZDdmZjI2M2E2MGI2"
      },
      "variables": {},
      "variableGroups": [],
      "preDeployApprovals": {
        "approvals": [
          {
            "rank": 1,
            "isAutomated": true,
            "isNotificationOn": false,
            "id": 558
          }
        ],
        "approvalOptions": {
          "requiredApproverCount": null,
          "releaseCreatorCanBeApprover": false,
          "autoTriggeredAndPreviousEnvironmentApprovedCanBeSkipped": false,
          "enforceIdentityRevalidation": false,
          "timeoutInMinutes": 0,
          "executionOrder": 1
        }
      },
      "deployStep": {
        "id": 559
      },
      "postDeployApprovals": {
        "approvals": [
          {
            "rank": 1,
            "isAutomated": true,
            "isNotificationOn": false,
            "id": 570
          }
        ],
        "approvalOptions": {
          "requiredApproverCount": null,
          "releaseCreatorCanBeApprover": false,
          "autoTriggeredAndPreviousEnvironmentApprovedCanBeSkipped": false,
          "enforceIdentityRevalidation": false,
          "timeoutInMinutes": 0,
          "executionOrder": 2
        }
      },
      "deployPhases": [
        {
          "deploymentInput": {
            "parallelExecution": {
              "parallelExecutionType": "none"
            },
            "skipArtifactsDownload": false,
            "artifactsDownloadInput": {
              "downloadInputs": []
            },
            "queueId": 23,
            "demands": [],
            "enableAccessToken": false,
            "timeoutInMinutes": 0,
            "jobCancelTimeoutInMinutes": 1,
            "condition": "succeeded()",
            "overrideInputs": {}
          },
          "rank": 1,
          "phaseType": 1,
          "name": "Agent phase",
          "workflowTasks": []
        }
      ],
      "environmentOptions": {
        "emailNotificationType": "OnlyOnFailure",
        "emailRecipients": "release.environment.owner;release.creator",
        "skipArtifactsDownload": false,
        "timeoutInMinutes": 0,
        "enableAccessToken": false,
        "publishDeploymentStatus": true,
        "badgeEnabled": false,
        "autoLinkWorkItems": false
      },
      "demands": [],
      "conditions": [
        {
          "name": "Security (OWASP)",
          "conditionType": 2,
          "value": "4"
        },
        {
          "name": "jmeter test",
          "conditionType": 2,
          "value": "4"
        },
        {
          "name": "Selenium",
          "conditionType": 2,
          "value": "4"
        }
      ],
      "executionPolicy": {
        "concurrencyCount": 1,
        "queueDepthCount": 0
      },
      "schedules": [],
      "retentionPolicy": {
        "daysToKeep": 30,
        "releasesToKeep": 3,
        "retainBuild": true
      },
      "processParameters": {},
      "properties": {},
      "preDeploymentGates": {
        "id": 0,
        "gatesOptions": null,
        "gates": []
      },
      "postDeploymentGates": {
        "id": 0,
        "gatesOptions": null,
        "gates": []
      },
      "badgeUrl": "https://gc-al-1.vsrm.visualstudio.com/_apis/public/Release/badge/cb5bdde1-df2d-41f7-9174-30fd20c94648/24/190"
    }
  ],
  "artifacts": [
    {
      "sourceId": "cb5bdde1-df2d-41f7-9174-30fd20c94648:95",
      "type": "Build",
      "alias": "DemoApplication-CI",
      "definitionReference": {
        "artifactSourceDefinitionUrl": {
          "id": "https://gc-al-1.visualstudio.com/_permalink/_build/index?collectionId=44edeccc-6d12-437a-9c1b-c25a91257528&projectId=cb5bdde1-df2d-41f7-9174-30fd20c94648&definitionId=95",
          "name": ""
        },
        "defaultVersionBranch": {
          "id": "",
          "name": ""
        },
        "defaultVersionSpecific": {
          "id": "",
          "name": ""
        },
        "defaultVersionTags": {
          "id": "",
          "name": ""
        },
        "defaultVersionType": {
          "id": "latestType",
          "name": "Latest"
        },
        "definition": {
          "id": "95",
          "name": "DemoApplication-CI"
        },
        "project": {
          "id": "cb5bdde1-df2d-41f7-9174-30fd20c94648",
          "name": "GeorgeTestProject3"
        }
      },
      "isPrimary": true
    }
  ],
  "triggers": [],
  "releaseNameFormat": "Release-$(rev:r)",
  "url": "https://gc-al-1.vsrm.visualstudio.com/cb5bdde1-df2d-41f7-9174-30fd20c94648/_apis/Release/definitions/24",
  "_links": {
    "self": {
      "href": "https://gc-al-1.vsrm.visualstudio.com/cb5bdde1-df2d-41f7-9174-30fd20c94648/_apis/Release/definitions/24"
    },
    "web": {
      "href": "https://gc-al-1.visualstudio.com/cb5bdde1-df2d-41f7-9174-30fd20c94648/_release?definitionId=24"
    }
  },
  "tags": [],
  "properties": {
    "DefinitionCreationSource": {
      "$type": "System.String",
      "$value": "ReleaseNew"
    }
  }
}
