{
  "options": [
    {
      "enabled": false,
      "definition": {
        "id": "5d58cc01-7c75-450c-be18-a388ddb129ec"
      },
      "inputs": {
        "branchFilters": "[\"+refs/heads/*\"]",
        "additionalFields": "{}"
      }
    },
    {
      "enabled": false,
      "definition": {
        "id": "a9db38f9-9fdc-478c-b0f9-464221e58316"
      },
      "inputs": {
        "workItemType": "1415671",
        "assignToRequestor": "true",
        "additionalFields": "{}"
      }
    },
    {
      "enabled": false,
      "definition": {
        "id": "57578776-4c22-4526-aeb0-86b6da17ee9c"
      },
      "inputs": {}
    }
  ],
  "variables": {
    "projectKey": {
      "value": "npm-todo-project-key"
    },
    "projectName": {
      "value": "npm-todo-project-key"
    },
    "system.debug": {
      "value": "false",
      "allowOverride": true
    }
  },
  "retentionRules": [
    {
      "branches": [
        "+refs/heads/*"
      ],
      "artifacts": [],
      "artifactTypesToDelete": [
        "FilePath",
        "SymbolStore"
      ],
      "daysToKeep": 10,
      "minimumToKeep": 1,
      "deleteBuildRecord": true,
      "deleteTestResults": true
    }
  ],
  "properties": {},
  "tags": [],
  "metrics": [
    {
      "name": "CurrentBuildsInQueue",
      "scope": "refs/heads/master",
      "intValue": 0
    },
    {
      "name": "CurrentBuildsInProgress",
      "scope": "refs/heads/master",
      "intValue": 0
    },
    {
      "name": "CanceledBuilds",
      "scope": "refs/heads/master",
      "intValue": 1,
      "date": "2018-04-18T00:00:00.000Z"
    },
    {
      "name": "FailedBuilds",
      "scope": "refs/heads/master",
      "intValue": 0,
      "date": "2018-04-18T00:00:00.000Z"
    },
    {
      "name": "PartiallySuccessfulBuilds",
      "scope": "refs/heads/master",
      "intValue": 0,
      "date": "2018-04-18T00:00:00.000Z"
    },
    {
      "name": "SuccessfulBuilds",
      "scope": "refs/heads/master",
      "intValue": 1,
      "date": "2018-04-18T00:00:00.000Z"
    },
    {
      "name": "TotalBuilds",
      "scope": "refs/heads/master",
      "intValue": 2,
      "date": "2018-04-18T00:00:00.000Z"
    },
    {
      "name": "CanceledBuilds",
      "scope": "refs/heads/master",
      "intValue": 1,
      "date": "2018-04-17T00:00:00.000Z"
    },
    {
      "name": "FailedBuilds",
      "scope": "refs/heads/master",
      "intValue": 2,
      "date": "2018-04-17T00:00:00.000Z"
    },
    {
      "name": "PartiallySuccessfulBuilds",
      "scope": "refs/heads/master",
      "intValue": 0,
      "date": "2018-04-17T00:00:00.000Z"
    },
    {
      "name": "SuccessfulBuilds",
      "scope": "refs/heads/master",
      "intValue": 4,
      "date": "2018-04-17T00:00:00.000Z"
    },
    {
      "name": "TotalBuilds",
      "scope": "refs/heads/master",
      "intValue": 7,
      "date": "2018-04-17T00:00:00.000Z"
    },
    {
      "name": "CanceledBuilds",
      "scope": "refs/heads/master",
      "intValue": 0,
      "date": "2018-04-16T00:00:00.000Z"
    },
    {
      "name": "FailedBuilds",
      "scope": "refs/heads/master",
      "intValue": 0,
      "date": "2018-04-16T00:00:00.000Z"
    },
    {
      "name": "PartiallySuccessfulBuilds",
      "scope": "refs/heads/master",
      "intValue": 0,
      "date": "2018-04-16T00:00:00.000Z"
    },
    {
      "name": "SuccessfulBuilds",
      "scope": "refs/heads/master",
      "intValue": 3,
      "date": "2018-04-16T00:00:00.000Z"
    },
    {
      "name": "TotalBuilds",
      "scope": "refs/heads/master",
      "intValue": 3,
      "date": "2018-04-16T00:00:00.000Z"
    },
    {
      "name": "CanceledBuilds",
      "scope": "refs/heads/master",
      "intValue": 0,
      "date": "2018-04-12T00:00:00.000Z"
    },
    {
      "name": "FailedBuilds",
      "scope": "refs/heads/master",
      "intValue": 0,
      "date": "2018-04-12T00:00:00.000Z"
    },
    {
      "name": "PartiallySuccessfulBuilds",
      "scope": "refs/heads/master",
      "intValue": 0,
      "date": "2018-04-12T00:00:00.000Z"
    },
    {
      "name": "SuccessfulBuilds",
      "scope": "refs/heads/master",
      "intValue": 1,
      "date": "2018-04-12T00:00:00.000Z"
    },
    {
      "name": "TotalBuilds",
      "scope": "refs/heads/master",
      "intValue": 1,
      "date": "2018-04-12T00:00:00.000Z"
    },
    {
      "name": "CanceledBuilds",
      "scope": "refs/heads/master",
      "intValue": 0,
      "date": "2018-04-11T00:00:00.000Z"
    },
    {
      "name": "FailedBuilds",
      "scope": "refs/heads/master",
      "intValue": 4,
      "date": "2018-04-11T00:00:00.000Z"
    },
    {
      "name": "PartiallySuccessfulBuilds",
      "scope": "refs/heads/master",
      "intValue": 0,
      "date": "2018-04-11T00:00:00.000Z"
    },
    {
      "name": "SuccessfulBuilds",
      "scope": "refs/heads/master",
      "intValue": 3,
      "date": "2018-04-11T00:00:00.000Z"
    },
    {
      "name": "TotalBuilds",
      "scope": "refs/heads/master",
      "intValue": 7,
      "date": "2018-04-11T00:00:00.000Z"
    }
  ],
  "_links": {
    "self": {
      "href": "https://amrital.visualstudio.com/42d3e4fc-4d64-4032-b18e-df5d99b28e03/_apis/build/Definitions/5?revision=24"
    },
    "web": {
      "href": "https://amrital.visualstudio.com/_permalink/_build/index?collectionId=5a3084eb-52c6-40e7-a722-d187cdb8ac59&projectId=42d3e4fc-4d64-4032-b18e-df5d99b28e03&definitionId=5"
    },
    "editor": {
      "href": "https://amrital.visualstudio.com/_permalink/_build/definitionEditor?collectionId=5a3084eb-52c6-40e7-a722-d187cdb8ac59&projectId=42d3e4fc-4d64-4032-b18e-df5d99b28e03&definitionId=5"
    }
  },
  "jobAuthorizationScope": 1,
  "jobTimeoutInMinutes": 60,
  "jobCancelTimeoutInMinutes": 5,
  "process": {
    "phases": [
      {
        "steps": [
          {
            "environment": {},
            "enabled": false,
            "continueOnError": false,
            "alwaysRun": false,
            "displayName": "Run dir",
            "timeoutInMinutes": 0,
            "condition": "succeeded()",
            "refName": "",
            "task": {
              "id": "d9bafed4-0b18-4f58-968d-86655b4d2ce9",
              "versionSpec": "1.*",
              "definitionType": "task"
            },
            "inputs": {
              "filename": "dir",
              "arguments": "",
              "workingFolder": "",
              "failOnStandardError": "false"
            }
          },
          {
            "environment": {},
            "enabled": true,
            "continueOnError": false,
            "alwaysRun": false,
            "displayName": "Archive $(Build.SourcesDirectory)",
            "timeoutInMinutes": 0,
            "condition": "succeeded()",
            "refName": "",
            "task": {
              "id": "d8b84976-e99a-4b86-b885-4849694435b0",
              "versionSpec": "2.*",
              "definitionType": "task"
            },
            "inputs": {
              "rootFolderOrFile": "$(Build.SourcesDirectory)",
              "includeRootFolder": "false",
              "archiveType": "zip",
              "tarCompression": "gz",
              "archiveFile": "package.zip",
              "replaceExistingArchive": "true"
            }
          },
          {
            "environment": {},
            "enabled": false,
            "continueOnError": false,
            "alwaysRun": false,
            "displayName": "Run dir",
            "timeoutInMinutes": 0,
            "condition": "succeeded()",
            "refName": "",
            "task": {
              "id": "d9bafed4-0b18-4f58-968d-86655b4d2ce9",
              "versionSpec": "1.*",
              "definitionType": "task"
            },
            "inputs": {
              "filename": "dir",
              "arguments": "",
              "workingFolder": "",
              "failOnStandardError": "false"
            }
          },
          {
            "environment": {},
            "enabled": true,
            "continueOnError": false,
            "alwaysRun": false,
            "displayName": "Publish Artifact: package.zip",
            "timeoutInMinutes": 0,
            "condition": "succeeded()",
            "refName": "",
            "task": {
              "id": "2ff763a7-ce83-4e1f-bc89-0ae63477cebe",
              "versionSpec": "1.*",
              "definitionType": "task"
            },
            "inputs": {
              "PathtoPublish": "$(Build.SourcesDirectory)/package.zip",
              "ArtifactName": "package.zip",
              "ArtifactType": "Container",
              "TargetPath": "\\\\my\\share\\$(Build.DefinitionName)\\$(Build.BuildNumber)",
              "Parallel": "false",
              "ParallelCount": "8"
            }
          },
          {
            "environment": {},
            "enabled": true,
            "continueOnError": false,
            "alwaysRun": false,
            "displayName": "Publish Artifact: install.sh",
            "timeoutInMinutes": 0,
            "condition": "succeeded()",
            "refName": "",
            "task": {
              "id": "2ff763a7-ce83-4e1f-bc89-0ae63477cebe",
              "versionSpec": "1.*",
              "definitionType": "task"
            },
            "inputs": {
              "PathtoPublish": "$(Build.SourcesDirectory)/install.sh",
              "ArtifactName": "install.sh",
              "ArtifactType": "Container",
              "TargetPath": "\\\\my\\share\\$(Build.DefinitionName)\\$(Build.BuildNumber)",
              "Parallel": "false",
              "ParallelCount": "8"
            }
          },
          {
            "environment": {},
            "enabled": true,
            "continueOnError": false,
            "alwaysRun": false,
            "displayName": "Publish Artifact: schema.sql",
            "timeoutInMinutes": 0,
            "condition": "succeeded()",
            "refName": "",
            "task": {
              "id": "2ff763a7-ce83-4e1f-bc89-0ae63477cebe",
              "versionSpec": "1.*",
              "definitionType": "task"
            },
            "inputs": {
              "PathtoPublish": "config/schema.sql",
              "ArtifactName": "schema",
              "ArtifactType": "Container",
              "TargetPath": "\\\\my\\share\\$(Build.DefinitionName)\\$(Build.BuildNumber)",
              "Parallel": "false",
              "ParallelCount": "8"
            }
          },
          {
            "environment": {},
            "enabled": true,
            "continueOnError": false,
            "alwaysRun": false,
            "displayName": "Build an image",
            "timeoutInMinutes": 0,
            "condition": "succeeded()",
            "refName": "",
            "task": {
              "id": "e28912f1-0114-4464-802a-a3a35437fd16",
              "versionSpec": "0.*",
              "definitionType": "task"
            },
            "inputs": {
              "containerregistrytype": "Azure Container Registry",
              "dockerRegistryEndpoint": "",
              "azureSubscriptionEndpoint": "0be89aa8-f31d-46a7-a000-fa05566874ec",
              "azureContainerRegistry": "{\"loginServer\":\"nodejsregistry.azurecr.io\", \"id\" : \"/subscriptions/0be89aa8-f31d-46a7-a000-fa05566874ec/resourceGroups/vaultcontainermerge/providers/Microsoft.ContainerRegistry/registries/nodejsregistry\"}",
              "action": "Build an image",
              "dockerFile": "Dockerfile",
              "buildArguments": "",
              "defaultContext": "true",
              "context": "",
              "imageName": "$(Build.Repository.Name):$(Build.BuildId)",
              "imageNamesPath": "",
              "qualifyImageName": "true",
              "additionalImageTags": "",
              "includeSourceTags": "false",
              "includeLatestTag": "true",
              "imageDigestFile": "",
              "containerName": "",
              "ports": "",
              "volumes": "",
              "envVars": "",
              "workDir": "",
              "entrypoint": "",
              "containerCommand": "",
              "detached": "true",
              "restartPolicy": "no",
              "restartMaxRetries": "",
              "customCommand": "",
              "dockerHostEndpoint": "",
              "enforceDockerNamingConvention": "true",
              "cwd": "$(System.DefaultWorkingDirectory)",
              "memory": ""
            }
          },
          {
            "environment": {},
            "enabled": true,
            "continueOnError": false,
            "alwaysRun": false,
            "displayName": "Push an image",
            "timeoutInMinutes": 0,
            "condition": "succeeded()",
            "refName": "",
            "task": {
              "id": "e28912f1-0114-4464-802a-a3a35437fd16",
              "versionSpec": "0.*",
              "definitionType": "task"
            },
            "inputs": {
              "containerregistrytype": "Azure Container Registry",
              "dockerRegistryEndpoint": "",
              "azureSubscriptionEndpoint": "0be89aa8-f31d-46a7-a000-fa05566874ec",
              "azureContainerRegistry": "{\"loginServer\":\"nodejsregistry.azurecr.io\", \"id\" : \"/subscriptions/0be89aa8-f31d-46a7-a000-fa05566874ec/resourceGroups/vaultcontainermerge/providers/Microsoft.ContainerRegistry/registries/nodejsregistry\"}",
              "action": "Push an image",
              "dockerFile": "**/Dockerfile",
              "buildArguments": "",
              "defaultContext": "true",
              "context": "",
              "imageName": "$(Build.Repository.Name):$(Build.BuildId)",
              "imageNamesPath": "",
              "qualifyImageName": "true",
              "additionalImageTags": "",
              "includeSourceTags": "false",
              "includeLatestTag": "true",
              "imageDigestFile": "",
              "containerName": "",
              "ports": "",
              "volumes": "",
              "envVars": "",
              "workDir": "",
              "entrypoint": "",
              "containerCommand": "",
              "detached": "true",
              "restartPolicy": "no",
              "restartMaxRetries": "",
              "customCommand": "",
              "dockerHostEndpoint": "",
              "enforceDockerNamingConvention": "true",
              "cwd": "$(System.DefaultWorkingDirectory)",
              "memory": ""
            }
          }
        ],
        "name": "Phase 1",
        "refName": "Phase_1",
        "condition": "succeeded()",
        "target": {
          "executionOptions": {
            "type": 0
          },
          "allowScriptsAuthAccessOption": false,
          "type": 1
        },
        "jobAuthorizationScope": "projectCollection",
        "jobCancelTimeoutInMinutes": 1
      }
    ],
    "type": 1
  },
  "repository": {
    "properties": {
      "cleanOptions": "0",
      "labelSources": "0",
      "labelSourcesFormat": "$(build.buildNumber)",
      "reportBuildStatus": "true",
      "gitLfsSupport": "false",
      "skipSyncSource": "false",
      "checkoutNestedSubmodules": "false",
      "fetchDepth": "0"
    },
    "id": "570a8e90-15c0-4c8c-a857-fa9327c84074",
    "type": "TfsGit",
    "name": "MyFirstProject",
    "url": "https://amrital.visualstudio.com/_git/MyFirstProject",
    "defaultBranch": "refs/heads/master",
    "clean": "false",
    "checkoutSubmodules": false
  },
  "processParameters": {},
  "quality": 1,
  "authoredBy": {
    "displayName": "Amrit Sultani",
    "url": "https://app.vssps.visualstudio.com/A41867518-014c-43c6-b8f3-b4b0660cd95d/_apis/Identities/a4b8be5c-3cc1-61cb-b8cd-2fa7782c483c",
    "_links": {
      "avatar": {
        "href": ""
      }
    },
    "id": "a4b8be5c-3cc1-61cb-b8cd-2fa7782c483c",
    "uniqueName": "amrit.sultani@automationlogic.onmicrosoft.com",
    "imageUrl": "https://amrital.visualstudio.com/_api/_common/identityImage?id=a4b8be5c-3cc1-61cb-b8cd-2fa7782c483c",
    "descriptor": "aad.YTRiOGJlNWMtM2NjMS03MWNiLWI4Y2QtMmZhNzc4MmM0ODNj"
  },
  "drafts": [],
  "queue": {
    "_links": {
      "self": {
        "href": "https://amrital.visualstudio.com/_apis/build/Queues/1"
      }
    },
    "id": 1,
    "name": "Default",
    "url": "https://amrital.visualstudio.com/_apis/build/Queues/1",
    "pool": {
      "id": 1,
      "name": "Default"
    }
  },
  "id": 5,
  "name": "nodejs-webapp",
  "url": "https://amrital.visualstudio.com/42d3e4fc-4d64-4032-b18e-df5d99b28e03/_apis/build/Definitions/5?revision=24",
  "uri": "vstfs:///Build/Definition/5",
  "path": "\\",
  "type": 2,
  "queueStatus": 0,
  "revision": 24,
  "createdDate": "2018-04-18T15:33:21.457Z",
  "project": {
    "id": "42d3e4fc-4d64-4032-b18e-df5d99b28e03",
    "name": "MyFirstProject",
    "url": "https://amrital.visualstudio.com/_apis/projects/42d3e4fc-4d64-4032-b18e-df5d99b28e03",
    "state": "wellFormed",
    "revision": 8,
    "visibility": 0
  }
}
